<?xml version="1.0"?>
<!DOCTYPE svg PUBLIC "-//W3C//DTD SVG 1.1//EN" "http://www.w3.org/Graphics/SVG/1.1/DTD/svg11.dtd">
<svg xmlns="http://www.w3.org/2000/svg" xmlns:xl="http://www.w3.org/1999/xlink" version="1.1" viewBox="312 42 236 249" width="236pt" height="249pt"><metadata xmlns:dc="http://purl.org/dc/elements/1.1/"><dc:date>2012-07-23 19:13Z</dc:date><!-- Produced by OmniGraffle Professional 5.4 --></metadata><defs><filter id="Shadow" filterUnits="userSpaceOnUse"><feGaussianBlur in="SourceAlpha" result="blur" stdDeviation="3.488"/><feOffset in="blur" result="offset" dx="0" dy="4"/><feFlood flood-color="black" flood-opacity=".75" result="flood"/><feComposite in="flood" in2="offset" operator="in"/></filter><font-face font-family="DIN OT" font-size="12" panose-1="2 11 8 4 2 1 1 2 1 2" units-per-em="1000" underline-position="-118" underline-thickness="124" slope="0" x-height="528" cap-height="719" ascent="1041.0022" descent="-237.00049" font-weight="bold"><font-face-src><font-face-name name="DINOT-Bold"/></font-face-src></font-face><font-face font-family="DIN OT" font-size="15" panose-1="2 11 5 4 2 1 1 2 1 2" units-per-em="1000" underline-position="-117.99999" underline-thickness="68" slope="0" x-height="498.99997" cap-height="719" ascent="1041.0021" descent="-237.00047" font-weight="500"><font-face-src><font-face-name name="DINOT"/></font-face-src></font-face><font-face font-family="DIN OT" font-size="10" panose-1="2 11 5 4 2 1 1 2 1 2" units-per-em="1000" underline-position="-118" underline-thickness="68" slope="0" x-height="499" cap-height="719" ascent="1041.0021" descent="-237.00047" font-weight="500"><font-face-src><font-face-name name="DINOT"/></font-face-src></font-face><marker orient="auto" overflow="visible" markerUnits="strokeWidth" id="FilledArrow_Marker" viewBox="-1 -4 10 8" markerWidth="10" markerHeight="8" color="black"><g><path d="M 8 0 L 0 -3 L 0 3 Z" fill="currentColor" stroke="currentColor" stroke-width="1"/></g></marker><font-face font-family="DIN OT" font-size="12" panose-1="2 11 5 4 2 1 1 2 1 2" units-per-em="1000" underline-position="-118" underline-thickness="68" slope="0" x-height="499" cap-height="719" ascent="1041.0022" descent="-237.00049" font-weight="500"><font-face-src><font-face-name name="DINOT"/></font-face-src></font-face></defs><g stroke="none" stroke-opacity="1" stroke-dasharray="none" fill="none" fill-opacity="1"><title>Canvas 9</title><g><title>Layer 1</title><g><use xl:href="#id116_Graphic" filter="url(#Shadow)"/><use xl:href="#id117_Graphic" filter="url(#Shadow)"/><use xl:href="#id120_Graphic" filter="url(#Shadow)"/></g><line x1="425.0645" y1="53.00009" x2="424.0645" y2="280" stroke="#6f6f6f" stroke-linecap="round" stroke-linejoin="round" stroke-width="1" stroke-dasharray="8,5"/><text transform="translate(337.25961 64.5)" fill="black"><tspan font-family="DIN OT" font-size="12" font-weight="bold" x=".342" y="12" textLength="7.56">C</tspan><tspan font-family="DIN OT" font-size="12" font-weight="bold" x="7.842" y="12" textLength="24.876">lient</tspan></text><text transform="translate(488.98 64.5)" fill="black"><tspan font-family="DIN OT" font-size="12" font-weight="bold" x=".338" y="12" textLength="7.212">S</tspan><tspan font-family="DIN OT" font-size="12" font-weight="bold" x="7.49" y="12" textLength="19.836">luic</tspan><tspan font-family="DIN OT" font-size="12" font-weight="bold" x="27.146" y="12" textLength="6.5760002">e</tspan></text><g id="id116_Graphic"><ellipse cx="354.1106" cy="136.48119" rx="21.851034" ry="22.981237" fill="white"/><ellipse cx="354.1106" cy="136.48119" rx="21.851034" ry="22.981237" stroke="black" stroke-linecap="round" stroke-linejoin="round" stroke-width="1"/><text transform="translate(341.6298 126.48119)" fill="black"><tspan font-family="DIN OT" font-size="15" font-weight="500" x="6.4433" y="16" textLength="9.705">C</tspan><tspan font-family="DIN OT" font-size="10" font-weight="500" x="16.0733" y="16" textLength="2.52">i</tspan></text></g><g id="id117_Graphic"><rect x="484.129" y="147.49999" width="43.702" height="45.9624" fill="white"/><rect x="484.129" y="147.49999" width="43.702" height="45.9624" stroke="black" stroke-linecap="round" stroke-linejoin="round" stroke-width="1"/><text transform="translate(489.129 160.48119)" fill="black"><tspan font-family="DIN OT" font-size="15" font-weight="500" x="12.441" y="16" textLength="8.97">S</tspan></text></g><line x1="375.97316" y1="141.375845" x2="473.98024" y2="163.31795" marker-end="url(#FilledArrow_Marker)" stroke="black" stroke-linecap="round" stroke-linejoin="round" stroke-width="1"/><text transform="translate(398.51534 118.15641)" fill="black"><tspan font-family="DIN OT" font-size="12" font-weight="500" x="9.744" y="12" textLength="5.052">r</tspan><tspan font-family="DIN OT" font-size="12" font-weight="500" x="14.436" y="12" textLength="31.956">eques</tspan><tspan font-family="DIN OT" font-size="12" font-weight="500" x="46.272" y="12" textLength="3.984">t</tspan><tspan font-family="DIN OT" font-size="12" font-weight="500" x=".312" y="27" textLength="10.932">cr</tspan><tspan font-family="DIN OT" font-size="12" font-weight="500" x="10.884" y="27" textLength="48.804">edentials</tspan></text><g id="id120_Graphic"><ellipse cx="354.1106" cy="236.00019" rx="21.851034" ry="22.981237" fill="white"/><ellipse cx="354.1106" cy="236.00019" rx="21.851034" ry="22.981237" stroke="black" stroke-linecap="round" stroke-linejoin="round" stroke-width="1"/><text transform="translate(341.6298 226.00019)" fill="black"><tspan font-family="DIN OT" font-size="15" font-weight="500" x="6.4433" y="16" textLength="9.705">C</tspan><tspan font-family="DIN OT" font-size="10" font-weight="500" x="16.0733" y="16" textLength="2.52">i</tspan></text></g><line x1="483.6699" y1="180.10614" x2="383.88137" y2="223.15658" marker-end="url(#FilledArrow_Marker)" stroke="black" stroke-linecap="round" stroke-linejoin="round" stroke-width="1"/><text transform="translate(414 207)" fill="black"><tspan font-family="DIN OT" font-size="12" font-weight="500" x=".252" y="12" textLength="22.728">curr</tspan><tspan font-family="DIN OT" font-size="12" font-weight="500" x="22.62" y="12" textLength="23.604">ent l</tspan><tspan font-family="DIN OT" font-size="12" font-weight="500" x="46.104" y="12" textLength="22.643999">ogin</tspan><tspan font-family="DIN OT" font-size="12" font-weight="500" x="4.812" y="27" textLength="10.932">cr</tspan><tspan font-family="DIN OT" font-size="12" font-weight="500" x="15.384" y="27" textLength="48.804">edentials</tspan></text></g></g></svg>
