<?xml version="1.0"?>
<!DOCTYPE svg PUBLIC "-//W3C//DTD SVG 1.1//EN" "http://www.w3.org/Graphics/SVG/1.1/DTD/svg11.dtd">
<svg xmlns="http://www.w3.org/2000/svg" xmlns:xl="http://www.w3.org/1999/xlink" version="1.1" viewBox="-7 40 891 471" width="891pt" height="471pt"><metadata xmlns:dc="http://purl.org/dc/elements/1.1/"><dc:date>2012-10-19 17:58Z</dc:date><!-- Produced by OmniGraffle Professional 5.4.2 --></metadata><defs><filter id="Shadow" filterUnits="userSpaceOnUse"><feGaussianBlur in="SourceAlpha" result="blur" stdDeviation="3.488"/><feOffset in="blur" result="offset" dx="0" dy="4"/><feFlood flood-color="black" flood-opacity=".75" result="flood"/><feComposite in="flood" in2="offset" operator="in"/></filter><font-face font-family="DIN OT" font-size="12" panose-1="2 11 8 4 2 1 1 2 1 2" units-per-em="1000" underline-position="-118" underline-thickness="124" slope="0" x-height="528" cap-height="719" ascent="1041.0022" descent="-237.00049" font-weight="bold"><font-face-src><font-face-name name="DINOT-Bold"/></font-face-src></font-face><font-face font-family="DIN OT" font-size="15" panose-1="2 11 5 4 2 1 1 2 1 2" units-per-em="1000" underline-position="-117.99999" underline-thickness="68" slope="0" x-height="498.99997" cap-height="719" ascent="1041.0021" descent="-237.00047" font-weight="500"><font-face-src><font-face-name name="DINOT"/></font-face-src></font-face><font-face font-family="DIN OT" font-size="10" panose-1="2 11 5 4 2 1 1 2 1 2" units-per-em="1000" underline-position="-118" underline-thickness="68" slope="0" x-height="499" cap-height="719" ascent="1041.0021" descent="-237.00047" font-weight="500"><font-face-src><font-face-name name="DINOT"/></font-face-src></font-face><marker orient="auto" overflow="visible" markerUnits="strokeWidth" id="FilledArrow_Marker" viewBox="-1 -4 10 8" markerWidth="10" markerHeight="8" color="black"><g><path d="M 8 0 L 0 -3 L 0 3 Z" fill="currentColor" stroke="currentColor" stroke-width="1"/></g></marker><font-face font-family="DIN OT" font-size="14" panose-1="2 11 6 4 2 1 1 2 1 2" units-per-em="1000" underline-position="-118" underline-thickness="97" slope="0" x-height="514" cap-height="719" ascent="1041.0022" descent="-237.00049" font-weight="600"><font-face-src><font-face-name name="DINOT-Medium"/></font-face-src></font-face><font-face font-family="DIN OT" font-size="14" panose-1="2 11 5 4 2 1 1 2 1 2" units-per-em="1000" underline-position="-118" underline-thickness="68" slope="0" x-height="499" cap-height="719" ascent="1041.0022" descent="-237.00049" font-weight="500"><font-face-src><font-face-name name="DINOT"/></font-face-src></font-face></defs><g stroke="none" stroke-opacity="1" stroke-dasharray="none" fill="none" fill-opacity="1"><title>Fluoroscope Creation</title><g><title>Layer 1</title><g><use xl:href="#id119_Graphic" filter="url(#Shadow)"/><use xl:href="#id114_Graphic" filter="url(#Shadow)"/><use xl:href="#id113_Graphic" filter="url(#Shadow)"/><use xl:href="#id111_Graphic" filter="url(#Shadow)"/><use xl:href="#id112_Graphic" filter="url(#Shadow)"/><use xl:href="#id110_Graphic" filter="url(#Shadow)"/><use xl:href="#id121_Graphic" filter="url(#Shadow)"/><use xl:href="#id122_Graphic" filter="url(#Shadow)"/><use xl:href="#id126_Graphic" filter="url(#Shadow)"/><use xl:href="#id127_Graphic" filter="url(#Shadow)"/><use xl:href="#id128_Graphic" filter="url(#Shadow)"/><use xl:href="#id129_Graphic" filter="url(#Shadow)"/><use xl:href="#id5_Graphic" filter="url(#Shadow)"/><use xl:href="#id55_Graphic" filter="url(#Shadow)"/><use xl:href="#id146_Graphic" filter="url(#Shadow)"/><use xl:href="#id147_Graphic" filter="url(#Shadow)"/><use xl:href="#id74_Graphic" filter="url(#Shadow)"/><use xl:href="#id95_Graphic" filter="url(#Shadow)"/><use xl:href="#id100_Graphic" filter="url(#Shadow)"/><use xl:href="#id101_Graphic" filter="url(#Shadow)"/><use xl:href="#id153_Graphic" filter="url(#Shadow)"/><use xl:href="#id154_Graphic" filter="url(#Shadow)"/><use xl:href="#id158_Graphic" filter="url(#Shadow)"/><use xl:href="#id159_Graphic" filter="url(#Shadow)"/><use xl:href="#id160_Graphic" filter="url(#Shadow)"/><use xl:href="#id161_Graphic" filter="url(#Shadow)"/></g><path d="M 434.65904 42 L 434 273 L 434 509" stroke="#6f6f6f" stroke-linecap="round" stroke-linejoin="round" stroke-width="1" stroke-dasharray="8,5"/><text transform="translate(341.11404 53.5)" fill="black"><tspan font-family="DIN OT" font-size="12" font-weight="bold" x=".342" y="12" textLength="7.56">C</tspan><tspan font-family="DIN OT" font-size="12" font-weight="bold" x="7.842" y="12" textLength="24.876">lient</tspan></text><text transform="translate(502.94507 53.5)" fill="black"><tspan font-family="DIN OT" font-size="12" font-weight="bold" x=".338" y="12" textLength="7.212">S</tspan><tspan font-family="DIN OT" font-size="12" font-weight="bold" x="7.49" y="12" textLength="19.836">luic</tspan><tspan font-family="DIN OT" font-size="12" font-weight="bold" x="27.146" y="12" textLength="6.5760002">e</tspan></text><g id="id119_Graphic"><ellipse cx="359.70633" cy="128" rx="21.851034" ry="22.981237" fill="white"/><ellipse cx="359.70633" cy="128" rx="21.851034" ry="22.981237" stroke="black" stroke-linecap="round" stroke-linejoin="round" stroke-width="1"/><text transform="translate(347.22553 118)" fill="black"><tspan font-family="DIN OT" font-size="15" font-weight="500" x="6.4433" y="16" textLength="9.705">C</tspan><tspan font-family="DIN OT" font-size="10" font-weight="500" x="16.0733" y="16" textLength="2.52">i</tspan></text></g><g id="id114_Graphic"><rect x="498.24304" y="160.5" width="43.702" height="45.9624" fill="white"/><rect x="498.24304" y="160.5" width="43.702" height="45.9624" stroke="black" stroke-linecap="round" stroke-linejoin="round" stroke-width="1"/><text transform="translate(503.24304 173.4812)" fill="black"><tspan font-family="DIN OT" font-size="15" font-weight="500" x="12.441" y="16" textLength="8.97">S</tspan></text></g><path d="M 381.03115 135.0484 C 390.05788 138.03197 391.71304 142.06376 408.11404 144 C 424.51505 145.93624 464.4888 143.44149 479.44704 146.667 C 487.6507 148.43599 490.55086 151.6111 492.51033 155.03544" marker-end="url(#FilledArrow_Marker)" stroke="black" stroke-linecap="round" stroke-linejoin="round" stroke-width="1"/><text transform="translate(404.26065 127.50258)" fill="black"><tspan font-family="DIN OT" font-size="10" font-weight="500" x="6.25645" y="10" textLength="4.21">r</tspan><tspan font-family="DIN OT" font-size="10" font-weight="500" x="10.16645" y="10" textLength="26.629999">eques</tspan><tspan font-family="DIN OT" font-size="10" font-weight="500" x="36.69645" y="10" textLength="16.73">t ne</tspan><tspan font-family="DIN OT" font-size="10" font-weight="500" x="53.37645" y="10" textLength="9.7299995">w </tspan><tspan font-family="DIN OT" font-size="10" font-weight="500" x="7.45145" y="22" textLength="21.209999">fluor</tspan><tspan font-family="DIN OT" font-size="10" font-weight="500" x="28.36145" y="22" textLength="15.16">osc</tspan><tspan font-family="DIN OT" font-size="10" font-weight="500" x="43.37145" y="22" textLength="16.049999">ope</tspan><tspan font-family="DIN OT" font-size="10" font-weight="500" x="14.83645" y="34" textLength="13.1">ins</tspan><tspan font-family="DIN OT" font-size="10" font-weight="500" x="27.83645" y="34" textLength="3.32">t</tspan><tspan font-family="DIN OT" font-size="10" font-weight="500" x="31.10645" y="34" textLength="15.78">anc</tspan><tspan font-family="DIN OT" font-size="10" font-weight="500" x="46.73645" y="34" textLength="5.3000002">e</tspan></text><text transform="translate(548.01304 165.5)" fill="black"><tspan font-family="DIN OT" font-size="10" font-weight="500" x="8.70145" y="10" textLength="42.28">adds a ne</tspan><tspan font-family="DIN OT" font-size="10" font-weight="500" x="50.93145" y="10" textLength="9.7299995">w </tspan><tspan font-family="DIN OT" font-size="10" font-weight="500" x="1.92145" y="22" textLength="21.209999">fluor</tspan><tspan font-family="DIN OT" font-size="10" font-weight="500" x="22.83145" y="22" textLength="15.16">osc</tspan><tspan font-family="DIN OT" font-size="10" font-weight="500" x="37.84145" y="22" textLength="21.86">ope t</tspan><tspan font-family="DIN OT" font-size="10" font-weight="500" x="59.65145" y="22" textLength="7.79">o </tspan><tspan font-family="DIN OT" font-size="10" font-weight="500" x="3.21645" y="34" textLength="53.25">the atlas vie</tspan><tspan font-family="DIN OT" font-size="10" font-weight="500" x="56.41645" y="34" textLength="7.2399998">w</tspan></text><g id="id113_Graphic"><ellipse cx="352.13974" cy="242.33495" rx="22.025736" ry="23.164988" fill="white"/><ellipse cx="352.13974" cy="242.33495" rx="22.025736" ry="23.164988" stroke="black" stroke-linecap="round" stroke-linejoin="round" stroke-width="1"/><text transform="translate(339.51918 232.33495)" fill="black"><tspan font-family="DIN OT" font-size="15" font-weight="500" x="7.84306" y="16" textLength="9.705">C</tspan></text></g><g id="id111_Graphic"><ellipse cx="359.53164" cy="242.33495" rx="22.025736" ry="23.164988" fill="white"/><ellipse cx="359.53164" cy="242.33495" rx="22.025736" ry="23.164988" stroke="black" stroke-linecap="round" stroke-linejoin="round" stroke-width="1"/><text transform="translate(346.91108 232.33495)" fill="black"><tspan font-family="DIN OT" font-size="15" font-weight="500" x="7.84306" y="16" textLength="9.705">C</tspan></text></g><g id="id112_Graphic"><ellipse cx="366.92354" cy="242.33495" rx="22.025736" ry="23.164988" fill="white"/><ellipse cx="366.92354" cy="242.33495" rx="22.025736" ry="23.164988" stroke="black" stroke-linecap="round" stroke-linejoin="round" stroke-width="1"/><text transform="translate(354.30298 232.33495)" fill="black"><tspan font-family="DIN OT" font-size="15" font-weight="500" x="7.84306" y="16" textLength="9.705">C</tspan></text></g><g id="id110_Graphic"><ellipse cx="373.58024" cy="242.33495" rx="22.025736" ry="23.164988" fill="white"/><ellipse cx="373.58024" cy="242.33495" rx="22.025736" ry="23.164988" stroke="black" stroke-linecap="round" stroke-linejoin="round" stroke-width="1"/><text transform="translate(360.95968 232.33495)" fill="black"><tspan font-family="DIN OT" font-size="15" font-weight="500" x="7.84306" y="16" textLength="9.705">C</tspan></text></g><path d="M 497.7618 189.77489 C 490.9909 191.68307 492.38684 194.07379 477.44704 195.5 C 462.50725 196.92621 423.03524 193.57093 408.11404 198.333 C 397.82075 201.61808 395.3191 208.53807 392.54688 215.33127" marker-end="url(#FilledArrow_Marker)" stroke="black" stroke-linecap="round" stroke-linejoin="round" stroke-width="1"/><text transform="translate(421.51696 182.66232)" fill="black"><tspan font-family="DIN OT" font-size="10" font-weight="500" x=".1" y="10" textLength="4.21">r</tspan><tspan font-family="DIN OT" font-size="10" font-weight="500" x="4.01" y="10" textLength="36.89">esponse</tspan></text><g id="id121_Graphic"><ellipse cx="359.70604" cy="334.6683" rx="21.851034" ry="22.981237" fill="white"/><ellipse cx="359.70604" cy="334.6683" rx="21.851034" ry="22.981237" stroke="black" stroke-linecap="round" stroke-linejoin="round" stroke-width="1"/><text transform="translate(347.22524 324.6683)" fill="black"><tspan font-family="DIN OT" font-size="15" font-weight="500" x="6.4433" y="16" textLength="9.705">C</tspan><tspan font-family="DIN OT" font-size="10" font-weight="500" x="16.0733" y="16" textLength="2.52">i</tspan></text></g><g id="id122_Graphic"><rect x="498.24304" y="367.1681" width="43.702" height="45.9624" fill="white"/><rect x="498.24304" y="367.1681" width="43.702" height="45.9624" stroke="black" stroke-linecap="round" stroke-linejoin="round" stroke-width="1"/><text transform="translate(503.24304 380.1493)" fill="black"><tspan font-family="DIN OT" font-size="15" font-weight="500" x="12.441" y="16" textLength="8.97">S</tspan></text></g><path d="M 381.0309 341.71659 C 390.0577 344.70013 391.713 348.73188 408.11404 350.6681 C 424.5151 352.60433 464.4888 350.1096 479.44704 353.3351 C 487.6507 355.1041 490.55086 358.2792 492.51033 361.70355" marker-end="url(#FilledArrow_Marker)" stroke="black" stroke-linecap="round" stroke-linejoin="round" stroke-width="1"/><text transform="translate(404.28404 326.0081)" fill="black"><tspan font-family="DIN OT" font-size="10" font-weight="500" x="6.25645" y="10" textLength="4.21">r</tspan><tspan font-family="DIN OT" font-size="10" font-weight="500" x="10.16645" y="10" textLength="26.629999">eques</tspan><tspan font-family="DIN OT" font-size="10" font-weight="500" x="36.69645" y="10" textLength="16.73">t ne</tspan><tspan font-family="DIN OT" font-size="10" font-weight="500" x="53.37645" y="10" textLength="9.7299995">w </tspan><tspan font-family="DIN OT" font-size="10" font-weight="500" x="7.45145" y="22" textLength="21.209999">fluor</tspan><tspan font-family="DIN OT" font-size="10" font-weight="500" x="28.36145" y="22" textLength="15.16">osc</tspan><tspan font-family="DIN OT" font-size="10" font-weight="500" x="43.37145" y="22" textLength="16.049999">ope</tspan><tspan font-family="DIN OT" font-size="10" font-weight="500" x="13.64645" y="34" textLength="3.32">t</tspan><tspan font-family="DIN OT" font-size="10" font-weight="500" x="16.91645" y="34" textLength="31.06">emplat</tspan><tspan font-family="DIN OT" font-size="10" font-weight="500" x="47.92645" y="34" textLength="5.3000002">e</tspan></text><text transform="translate(548.01304 372.1681)" fill="black"><tspan font-family="DIN OT" font-size="10" font-weight="500" x="8.70145" y="10" textLength="42.28">adds a ne</tspan><tspan font-family="DIN OT" font-size="10" font-weight="500" x="50.93145" y="10" textLength="9.7299995">w </tspan><tspan font-family="DIN OT" font-size="10" font-weight="500" x="1.92145" y="22" textLength="21.209999">fluor</tspan><tspan font-family="DIN OT" font-size="10" font-weight="500" x="22.83145" y="22" textLength="15.16">osc</tspan><tspan font-family="DIN OT" font-size="10" font-weight="500" x="37.84145" y="22" textLength="21.86">ope t</tspan><tspan font-family="DIN OT" font-size="10" font-weight="500" x="59.65145" y="22" textLength="7.79">o </tspan><tspan font-family="DIN OT" font-size="10" font-weight="500" x="13.71145" y="34" textLength="14.92">par</tspan><tspan font-family="DIN OT" font-size="10" font-weight="500" x="28.53145" y="34" textLength="24.629999">amus</tspan></text><g id="id126_Graphic"><ellipse cx="352.13974" cy="449.00305" rx="22.025736" ry="23.164988" fill="white"/><ellipse cx="352.13974" cy="449.00305" rx="22.025736" ry="23.164988" stroke="black" stroke-linecap="round" stroke-linejoin="round" stroke-width="1"/><text transform="translate(339.51918 439.00305)" fill="black"><tspan font-family="DIN OT" font-size="15" font-weight="500" x="7.84306" y="16" textLength="9.705">C</tspan></text></g><g id="id127_Graphic"><ellipse cx="359.53174" cy="449.00305" rx="22.025736" ry="23.164988" fill="white"/><ellipse cx="359.53174" cy="449.00305" rx="22.025736" ry="23.164988" stroke="black" stroke-linecap="round" stroke-linejoin="round" stroke-width="1"/><text transform="translate(346.91118 439.00305)" fill="black"><tspan font-family="DIN OT" font-size="15" font-weight="500" x="7.84306" y="16" textLength="9.705">C</tspan></text></g><g id="id128_Graphic"><ellipse cx="366.92374" cy="449.00305" rx="22.025736" ry="23.164988" fill="white"/><ellipse cx="366.92374" cy="449.00305" rx="22.025736" ry="23.164988" stroke="black" stroke-linecap="round" stroke-linejoin="round" stroke-width="1"/><text transform="translate(354.30318 439.00305)" fill="black"><tspan font-family="DIN OT" font-size="15" font-weight="500" x="7.84306" y="16" textLength="9.705">C</tspan></text></g><g id="id129_Graphic"><ellipse cx="373.58074" cy="449.00305" rx="22.025736" ry="23.164988" fill="white"/><ellipse cx="373.58074" cy="449.00305" rx="22.025736" ry="23.164988" stroke="black" stroke-linecap="round" stroke-linejoin="round" stroke-width="1"/><text transform="translate(360.96018 439.00305)" fill="black"><tspan font-family="DIN OT" font-size="15" font-weight="500" x="7.84306" y="16" textLength="9.705">C</tspan></text></g><path d="M 497.80305 402.18091 C 491.0184 405.84294 492.39372 410.86497 477.44704 413.1681 C 462.50037 415.47124 422.64647 412.68296 408.11404 416.0011 C 400.0985 417.83127 397.30058 421.10633 395.40366 424.63072" marker-end="url(#FilledArrow_Marker)" stroke="black" stroke-linecap="round" stroke-linejoin="round" stroke-width="1"/><text transform="translate(413.94817 401.23388)" fill="black"><tspan font-family="DIN OT" font-size="10" font-weight="500" x=".1" y="10" textLength="4.21">r</tspan><tspan font-family="DIN OT" font-size="10" font-weight="500" x="4.01" y="10" textLength="36.89">esponse</tspan></text><path d="M 499.66734 206.83878 C 495.16268 211.98978 499.95867 219.24572 486.152 222.29334 C 472.34532 225.34096 432.0678 223.18386 416.819 225.12634 C 409.5639 226.05054 405.86674 227.42687 403.18844 228.93263" marker-end="url(#FilledArrow_Marker)" stroke="black" stroke-linecap="round" stroke-linejoin="round" stroke-width="1"/><text transform="translate(408.244 210.1627)" fill="black"><tspan font-family="DIN OT" font-size="10" font-weight="500" x=".215" y="10" textLength="10.92">ne</tspan><tspan font-family="DIN OT" font-size="10" font-weight="500" x="11.085" y="10" textLength="30.94">w fluor</tspan><tspan font-family="DIN OT" font-size="10" font-weight="500" x="41.725" y="10" textLength="15.16">osc</tspan><tspan font-family="DIN OT" font-size="10" font-weight="500" x="56.735" y="10" textLength="16.049999">ope</tspan><tspan font-family="DIN OT" font-size="10" font-weight="500" x="28.665" y="22" textLength="15.67">psa</tspan></text><text transform="translate(809.8664 53.5)" fill="black"><tspan font-family="DIN OT" font-size="12" font-weight="bold" x=".338" y="12" textLength="7.212">S</tspan><tspan font-family="DIN OT" font-size="12" font-weight="bold" x="7.49" y="12" textLength="19.836">luic</tspan><tspan font-family="DIN OT" font-size="12" font-weight="bold" x="27.146" y="12" textLength="6.5760002">e</tspan></text><g id="id5_Graphic"><ellipse cx="674.848" cy="145.1128" rx="21.851034" ry="22.981237" fill="white"/><ellipse cx="674.848" cy="145.1128" rx="21.851034" ry="22.981237" stroke="black" stroke-linecap="round" stroke-linejoin="round" stroke-width="1"/><text transform="translate(662.3672 135.1128)" fill="black"><tspan font-family="DIN OT" font-size="15" font-weight="500" x="8.8058" y="16" textLength="7.35">c</tspan></text></g><g id="id55_Graphic"><rect x="804.8664" y="156.1316" width="43.702" height="45.9624" fill="white"/><rect x="804.8664" y="156.1316" width="43.702" height="45.9624" stroke="black" stroke-linecap="round" stroke-linejoin="round" stroke-width="1"/><text transform="translate(809.8664 169.1128)" fill="black"><tspan font-family="DIN OT" font-size="15" font-weight="500" x="12.441" y="16" textLength="8.97">S</tspan></text></g><line x1="696.71075" y1="150.00643" x2="794.71754" y2="171.9437" marker-end="url(#FilledArrow_Marker)" stroke="black" stroke-linecap="round" stroke-linejoin="round" stroke-width="1"/><text transform="translate(716.32993 134.12469)" fill="black"><tspan font-family="DIN OT" font-size="10" font-weight="500" x=".375" y="10" textLength="4.21">r</tspan><tspan font-family="DIN OT" font-size="10" font-weight="500" x="4.285" y="10" textLength="26.629999">eques</tspan><tspan font-family="DIN OT" font-size="10" font-weight="500" x="30.815" y="10" textLength="32.39">t displa</tspan><tspan font-family="DIN OT" font-size="10" font-weight="500" x="63.155" y="10" textLength="4.4699998">y</tspan><tspan font-family="DIN OT" font-size="10" font-weight="500" x="25.055" y="22" textLength="7.2399998">w</tspan><tspan font-family="DIN OT" font-size="10" font-weight="500" x="32.195" y="22" textLength="10.75">eb</tspan></text><text transform="translate(775.3664 217.2252)" fill="black"><tspan font-family="DIN OT" font-size="10" font-weight="500" x="12.595" y="10" textLength="20.94">sluic</tspan><tspan font-family="DIN OT" font-size="10" font-weight="500" x="33.385" y="10" textLength="34.369999">e displa</tspan><tspan font-family="DIN OT" font-size="10" font-weight="500" x="67.705" y="10" textLength="4.4699998">y</tspan><tspan font-family="DIN OT" font-size="10" font-weight="500" x="72.075" y="10" textLength="18.33">s an</tspan><tspan font-family="DIN OT" font-size="10" font-weight="500" x="8.925" y="22" textLength="58.64">embedded br</tspan><tspan font-family="DIN OT" font-size="10" font-weight="500" x="67.265" y="22" textLength="5.3000002">o</tspan><tspan font-family="DIN OT" font-size="10" font-weight="500" x="72.465" y="22" textLength="7.2399998">w</tspan><tspan font-family="DIN OT" font-size="10" font-weight="500" x="79.605" y="22" textLength="16.959999">ser </tspan><tspan font-family="DIN OT" font-size="10" font-weight="500" x="7.755" y="34" textLength="50.34">with the giv</tspan><tspan font-family="DIN OT" font-size="10" font-weight="500" x="57.995" y="34" textLength="39.740002">en url at </tspan><tspan font-family="DIN OT" font-size="10" font-weight="500" x="14.24" y="46" textLength="29.15">the giv</tspan><tspan font-family="DIN OT" font-size="10" font-weight="500" x="43.29" y="46" textLength="47.96">en entity's </tspan><tspan font-family="DIN OT" font-size="10" font-weight="500" x="33.995" y="58" textLength="2.94">l</tspan><tspan font-family="DIN OT" font-size="10" font-weight="500" x="36.835" y="58" textLength="10.2">oc</tspan><tspan font-family="DIN OT" font-size="10" font-weight="500" x="46.985" y="58" textLength="22.02">ation</tspan></text><text transform="translate(649.655 53.5)" fill="black"><tspan font-family="DIN OT" font-size="12" font-weight="bold" x=".342" y="12" textLength="7.56">C</tspan><tspan font-family="DIN OT" font-size="12" font-weight="bold" x="7.842" y="12" textLength="24.876">lient</tspan></text><path d="M 750.94167 42 L 750.28267 273 L 750.28267 509" stroke="#6f6f6f" stroke-linecap="round" stroke-linejoin="round" stroke-width="1" stroke-dasharray="8,5"/><text transform="translate(21 52.5)" fill="black"><tspan font-family="DIN OT" font-size="12" font-weight="bold" x=".342" y="12" textLength="7.56">C</tspan><tspan font-family="DIN OT" font-size="12" font-weight="bold" x="7.842" y="12" textLength="24.876">lient</tspan></text><text transform="translate(155.83099 52.5)" fill="black"><tspan font-family="DIN OT" font-size="12" font-weight="bold" x=".338" y="12" textLength="7.212">S</tspan><tspan font-family="DIN OT" font-size="12" font-weight="bold" x="7.49" y="12" textLength="19.836">luic</tspan><tspan font-family="DIN OT" font-size="12" font-weight="bold" x="27.146" y="12" textLength="6.5760002">e</tspan></text><g id="id146_Graphic"><ellipse cx="38.1106" cy="139.4812" rx="21.851034" ry="22.981237" fill="white"/><ellipse cx="38.1106" cy="139.4812" rx="21.851034" ry="22.981237" stroke="black" stroke-linecap="round" stroke-linejoin="round" stroke-width="1"/><text transform="translate(25.6298 129.4812)" fill="black"><tspan font-family="DIN OT" font-size="15" font-weight="500" x="6.4433" y="16" textLength="9.705">C</tspan><tspan font-family="DIN OT" font-size="10" font-weight="500" x="16.0733" y="16" textLength="2.52">i</tspan></text></g><g id="id147_Graphic"><rect x="151.129" y="150.5" width="43.702" height="45.9624" fill="white"/><rect x="151.129" y="150.5" width="43.702" height="45.9624" stroke="black" stroke-linecap="round" stroke-linejoin="round" stroke-width="1"/><text transform="translate(156.129 163.4812)" fill="black"><tspan font-family="DIN OT" font-size="15" font-weight="500" x="12.441" y="16" textLength="8.97">S</tspan></text></g><line x1="59.847466" y1="144.96129" x2="141.044535" y2="165.43191" marker-end="url(#FilledArrow_Marker)" stroke="black" stroke-linecap="round" stroke-linejoin="round" stroke-width="1"/><text transform="translate(77.156704 123.02506)" fill="black"><tspan font-family="DIN OT" font-size="10" font-weight="500" x="11.62" y="10" textLength="4.21">r</tspan><tspan font-family="DIN OT" font-size="10" font-weight="500" x="15.53" y="10" textLength="26.629999">eques</tspan><tspan font-family="DIN OT" font-size="10" font-weight="500" x="42.06" y="10" textLength="3.32">t</tspan><tspan font-family="DIN OT" font-size="10" font-weight="500" x=".035" y="22" textLength="21.209999">fluor</tspan><tspan font-family="DIN OT" font-size="10" font-weight="500" x="20.945" y="22" textLength="15.16">osc</tspan><tspan font-family="DIN OT" font-size="10" font-weight="500" x="35.955" y="22" textLength="21.01">opes</tspan></text><text transform="translate(205.15584 143.4812)" fill="black"><tspan font-family="DIN OT" font-size="10" font-weight="500" x=".135" y="10" textLength="4.21">r</tspan><tspan font-family="DIN OT" font-size="10" font-weight="500" x="4.045" y="10" textLength="58.669998">eturns the lis</tspan><tspan font-family="DIN OT" font-size="10" font-weight="500" x="62.615" y="10" textLength="14.25">t of</tspan><tspan font-family="DIN OT" font-size="10" font-weight="500" x="12.515" y="22" textLength="21.209999">fluor</tspan><tspan font-family="DIN OT" font-size="10" font-weight="500" x="33.425" y="22" textLength="15.16">osc</tspan><tspan font-family="DIN OT" font-size="10" font-weight="500" x="48.435" y="22" textLength="16.049999">ope</tspan><tspan font-family="DIN OT" font-size="10" font-weight="500" x="3.95" y="34" textLength="13.1">ins</tspan><tspan font-family="DIN OT" font-size="10" font-weight="500" x="16.95" y="34" textLength="3.32">t</tspan><tspan font-family="DIN OT" font-size="10" font-weight="500" x="20.22" y="34" textLength="15.78">anc</tspan><tspan font-family="DIN OT" font-size="10" font-weight="500" x="35.85" y="34" textLength="20.950001">es al</tspan><tspan font-family="DIN OT" font-size="10" font-weight="500" x="56.7" y="34" textLength="16.35">ong</tspan><tspan font-family="DIN OT" font-size="10" font-weight="500" x="17.42" y="46" textLength="42.16">with their</tspan><tspan font-family="DIN OT" font-size="10" font-weight="500" x="6.765" y="58" textLength="4.9">c</tspan><tspan font-family="DIN OT" font-size="10" font-weight="500" x="11.515" y="58" textLength="31.84">onfigur</tspan><tspan font-family="DIN OT" font-size="10" font-weight="500" x="43.255" y="58" textLength="26.98">ations</tspan></text><g id="id74_Graphic"><ellipse cx="32.0257" cy="241.33495" rx="22.025736" ry="23.164988" fill="white"/><ellipse cx="32.0257" cy="241.33495" rx="22.025736" ry="23.164988" stroke="black" stroke-linecap="round" stroke-linejoin="round" stroke-width="1"/><text transform="translate(19.40514 231.33495)" fill="black"><tspan font-family="DIN OT" font-size="15" font-weight="500" x="7.84306" y="16" textLength="9.705">C</tspan></text></g><g id="id95_Graphic"><ellipse cx="39.4176" cy="241.33495" rx="22.025736" ry="23.164988" fill="white"/><ellipse cx="39.4176" cy="241.33495" rx="22.025736" ry="23.164988" stroke="black" stroke-linecap="round" stroke-linejoin="round" stroke-width="1"/><text transform="translate(26.79704 231.33495)" fill="black"><tspan font-family="DIN OT" font-size="15" font-weight="500" x="7.84306" y="16" textLength="9.705">C</tspan></text></g><g id="id100_Graphic"><ellipse cx="46.8095" cy="241.33495" rx="22.025736" ry="23.164988" fill="white"/><ellipse cx="46.8095" cy="241.33495" rx="22.025736" ry="23.164988" stroke="black" stroke-linecap="round" stroke-linejoin="round" stroke-width="1"/><text transform="translate(34.18894 231.33495)" fill="black"><tspan font-family="DIN OT" font-size="15" font-weight="500" x="7.84306" y="16" textLength="9.705">C</tspan></text></g><g id="id101_Graphic"><ellipse cx="53.4662" cy="241.33495" rx="22.025736" ry="23.164988" fill="white"/><ellipse cx="53.4662" cy="241.33495" rx="22.025736" ry="23.164988" stroke="black" stroke-linecap="round" stroke-linejoin="round" stroke-width="1"/><text transform="translate(40.84564 231.33495)" fill="black"><tspan font-family="DIN OT" font-size="15" font-weight="500" x="7.84306" y="16" textLength="9.705">C</tspan></text></g><line x1="150.69426" y1="186.14199" x2="81.91034" y2="225.21895" marker-end="url(#FilledArrow_Marker)" stroke="black" stroke-linecap="round" stroke-linejoin="round" stroke-width="1"/><text transform="translate(102.358414 211.49622)" fill="black"><tspan font-family="DIN OT" font-size="10" font-weight="500" x="1.33" y="10" textLength="21.209999">fluor</tspan><tspan font-family="DIN OT" font-size="10" font-weight="500" x="22.24" y="10" textLength="18.209999">o lis</tspan><tspan font-family="DIN OT" font-size="10" font-weight="500" x="40.35" y="10" textLength="5.81">t </tspan></text><path d="M 106.296144 42 L 105.637144 273 L 105.637144 509" stroke="#6f6f6f" stroke-linecap="round" stroke-linejoin="round" stroke-width="1" stroke-dasharray="8,5"/><g id="id153_Graphic"><ellipse cx="38.1106" cy="345.8817" rx="21.851034" ry="22.981237" fill="white"/><ellipse cx="38.1106" cy="345.8817" rx="21.851034" ry="22.981237" stroke="black" stroke-linecap="round" stroke-linejoin="round" stroke-width="1"/><text transform="translate(25.6298 336.8817)" fill="black"><tspan font-family="DIN OT" font-size="14" font-weight="600" x="6.3208" y="15" textLength="8.932">C</tspan><tspan font-family="DIN OT" font-size="14" font-weight="500" x="15.1828" y="15" textLength="3.5280001">i</tspan></text></g><g id="id154_Graphic"><rect x="150.95605" y="363.73393" width="43.702" height="45.9624" fill="white"/><rect x="150.95605" y="363.73393" width="43.702" height="45.9624" stroke="black" stroke-linecap="round" stroke-linejoin="round" stroke-width="1"/><text transform="translate(155.95605 376.71513)" fill="black"><tspan font-family="DIN OT" font-size="15" font-weight="500" x="12.441" y="16" textLength="8.97">S</tspan></text></g><line x1="59.58885" y1="352.39401" x2="141.003434" y2="377.07933" marker-end="url(#FilledArrow_Marker)" stroke="black" stroke-linecap="round" stroke-linejoin="round" stroke-width="1"/><text transform="translate(66.901285 333.63725)" fill="black"><tspan font-family="DIN OT" font-size="10" font-weight="500" x=".05" y="10" textLength="4.21">r</tspan><tspan font-family="DIN OT" font-size="10" font-weight="500" x="3.96" y="10" textLength="26.629999">eques</tspan><tspan font-family="DIN OT" font-size="10" font-weight="500" x="30.49" y="10" textLength="9.13">t t</tspan><tspan font-family="DIN OT" font-size="10" font-weight="500" x="39.57" y="10" textLength="12.6899996">o c</tspan><tspan font-family="DIN OT" font-size="10" font-weight="500" x="52.11" y="10" textLength="31.84">onfigur</tspan><tspan font-family="DIN OT" font-size="10" font-weight="500" x="83.65" y="10" textLength="5.3000002">e</tspan><tspan font-family="DIN OT" font-size="10" font-weight="500" x="18.515" y="22" textLength="21.209999">fluor</tspan><tspan font-family="DIN OT" font-size="10" font-weight="500" x="39.425" y="22" textLength="15.16">osc</tspan><tspan font-family="DIN OT" font-size="10" font-weight="500" x="54.435" y="22" textLength="16.049999">ope</tspan></text><text transform="translate(205.15584 362.71515)" fill="black"><tspan font-family="DIN OT" font-size="10" font-weight="500" x="12.98" y="10" textLength="25.1">updat</tspan><tspan font-family="DIN OT" font-size="10" font-weight="500" x="38.03" y="10" textLength="26.99">es the</tspan><tspan font-family="DIN OT" font-size="10" font-weight="500" x="20.21" y="22" textLength="37.580002">changed</tspan><tspan font-family="DIN OT" font-size="10" font-weight="500" x="3.555" y="34" textLength="33.02">attribut</tspan><tspan font-family="DIN OT" font-size="10" font-weight="500" x="36.525" y="34" textLength="37.919998">es of the</tspan><tspan font-family="DIN OT" font-size="10" font-weight="500" x=".15" y="46" textLength="12.42">giv</tspan><tspan font-family="DIN OT" font-size="10" font-weight="500" x="12.47" y="46" textLength="34.619999">en fluor</tspan><tspan font-family="DIN OT" font-size="10" font-weight="500" x="46.79" y="46" textLength="15.16">osc</tspan><tspan font-family="DIN OT" font-size="10" font-weight="500" x="61.8" y="46" textLength="16.049999">ope</tspan></text><g id="id158_Graphic"><ellipse cx="26.779751" cy="449.56888" rx="22.025736" ry="23.164988" fill="white"/><ellipse cx="26.779751" cy="449.56888" rx="22.025736" ry="23.164988" stroke="black" stroke-linecap="round" stroke-linejoin="round" stroke-width="1"/><text transform="translate(14.159191 439.56888)" fill="black"><tspan font-family="DIN OT" font-size="15" font-weight="500" x="7.84306" y="16" textLength="9.705">C</tspan></text></g><g id="id159_Graphic"><ellipse cx="34.171651" cy="449.56888" rx="22.025736" ry="23.164988" fill="white"/><ellipse cx="34.171651" cy="449.56888" rx="22.025736" ry="23.164988" stroke="black" stroke-linecap="round" stroke-linejoin="round" stroke-width="1"/><text transform="translate(21.551091 439.56888)" fill="black"><tspan font-family="DIN OT" font-size="15" font-weight="500" x="7.84306" y="16" textLength="9.705">C</tspan></text></g><g id="id160_Graphic"><ellipse cx="41.56355" cy="449.56888" rx="22.025736" ry="23.164988" fill="white"/><ellipse cx="41.56355" cy="449.56888" rx="22.025736" ry="23.164988" stroke="black" stroke-linecap="round" stroke-linejoin="round" stroke-width="1"/><text transform="translate(28.942991 439.56888)" fill="black"><tspan font-family="DIN OT" font-size="15" font-weight="500" x="7.84306" y="16" textLength="9.705">C</tspan></text></g><g id="id161_Graphic"><ellipse cx="48.22025" cy="449.56888" rx="22.025736" ry="23.164988" fill="white"/><ellipse cx="48.22025" cy="449.56888" rx="22.025736" ry="23.164988" stroke="black" stroke-linecap="round" stroke-linejoin="round" stroke-width="1"/><text transform="translate(35.599691 439.56888)" fill="black"><tspan font-family="DIN OT" font-size="15" font-weight="500" x="7.84306" y="16" textLength="9.705">C</tspan></text></g><line x1="150.50958" y1="397.95623" x2="77.357508" y2="434.83526" marker-end="url(#FilledArrow_Marker)" stroke="black" stroke-linecap="round" stroke-linejoin="round" stroke-width="1"/><text transform="translate(55.79718 395.39565)" fill="black"><tspan font-family="DIN OT" font-size="10" font-weight="500" x="20.015" y="10" textLength="21.209999">fluor</tspan><tspan font-family="DIN OT" font-size="10" font-weight="500" x="40.925" y="10" textLength="15.16">osc</tspan><tspan font-family="DIN OT" font-size="10" font-weight="500" x="55.935" y="10" textLength="16.049999">ope</tspan><tspan font-family="DIN OT" font-size="10" font-weight="500" x=".325" y="22" textLength="4.9">c</tspan><tspan font-family="DIN OT" font-size="10" font-weight="500" x="5.075" y="22" textLength="31.84">onfigur</tspan><tspan font-family="DIN OT" font-size="10" font-weight="500" x="36.815" y="22" textLength="49.61">ation updat</tspan><tspan font-family="DIN OT" font-size="10" font-weight="500" x="86.375" y="22" textLength="5.3000002">e</tspan></text></g></g></svg>
