<?xml version="1.0"?>
<!DOCTYPE svg PUBLIC "-//W3C//DTD SVG 1.1//EN" "http://www.w3.org/Graphics/SVG/1.1/DTD/svg11.dtd">
<svg xmlns="http://www.w3.org/2000/svg" xmlns:xl="http://www.w3.org/1999/xlink" version="1.1" viewBox="76 25 251 260" width="251pt" height="260pt"><metadata xmlns:dc="http://purl.org/dc/elements/1.1/"><dc:date>2012-07-16 15:29Z</dc:date><!-- Produced by OmniGraffle Professional 5.4 --></metadata><defs><filter id="Shadow" filterUnits="userSpaceOnUse"><feGaussianBlur in="SourceAlpha" result="blur" stdDeviation="3.488"/><feOffset in="blur" result="offset" dx="0" dy="4"/><feFlood flood-color="black" flood-opacity=".75" result="flood"/><feComposite in="flood" in2="offset" operator="in"/></filter><font-face font-family="DIN OT" font-size="12" panose-1="2 11 8 4 2 1 1 2 1 2" units-per-em="1000" underline-position="-118" underline-thickness="124" slope="0" x-height="528" cap-height="719" ascent="1041.0022" descent="-237.00049" font-weight="bold"><font-face-src><font-face-name name="DINOT-Bold"/></font-face-src></font-face><font-face font-family="DIN OT" font-size="15" panose-1="2 11 5 4 2 1 1 2 1 2" units-per-em="1000" underline-position="-117.99999" underline-thickness="68" slope="0" x-height="498.99997" cap-height="719" ascent="1041.0021" descent="-237.00047" font-weight="500"><font-face-src><font-face-name name="DINOT"/></font-face-src></font-face><marker orient="auto" overflow="visible" markerUnits="strokeWidth" id="FilledArrow_Marker" viewBox="-1 -4 10 8" markerWidth="10" markerHeight="8" color="black"><g><path d="M 8 0 L 0 -3 L 0 3 Z" fill="currentColor" stroke="currentColor" stroke-width="1"/></g></marker><font-face font-family="DIN OT" font-size="10" panose-1="2 11 5 4 2 1 1 2 1 2" units-per-em="1000" underline-position="-118" underline-thickness="68" slope="0" x-height="499" cap-height="719" ascent="1041.0021" descent="-237.00047" font-weight="500"><font-face-src><font-face-name name="DINOT"/></font-face-src></font-face></defs><g stroke="none" stroke-opacity="1" stroke-dasharray="none" fill="none" fill-opacity="1"><title>Canvas 4</title><g><title>Layer 1</title><g><use xl:href="#id81_Graphic" filter="url(#Shadow)"/><use xl:href="#id82_Graphic" filter="url(#Shadow)"/><use xl:href="#id71_Graphic" filter="url(#Shadow)"/></g><line x1="199.447" y1="36" x2="200" y2="274" stroke="#6f6f6f" stroke-linecap="round" stroke-linejoin="round" stroke-width="1" stroke-dasharray="8,5"/><text transform="translate(90 48.0001)" fill="black"><tspan font-family="DIN OT" font-size="12" font-weight="bold" x=".304" y="12" textLength="7.2">F</tspan><tspan font-family="DIN OT" font-size="12" font-weight="bold" x="7.444" y="12" textLength="22.752001">luor</tspan><tspan font-family="DIN OT" font-size="12" font-weight="bold" x="29.836" y="12" textLength="18.288">osc</tspan><tspan font-family="DIN OT" font-size="12" font-weight="bold" x="47.944" y="12" textLength="19.812">ope</tspan><tspan font-family="DIN OT" font-size="12" font-weight="bold" x="11.602" y="27" textLength="8.028">D</tspan><tspan font-family="DIN OT" font-size="12" font-weight="bold" x="19.57" y="27" textLength="36.888">aemon</tspan></text><text transform="translate(251.494 48.5001)" fill="black"><tspan font-family="DIN OT" font-size="12" font-weight="bold" x=".338" y="12" textLength="7.212">S</tspan><tspan font-family="DIN OT" font-size="12" font-weight="bold" x="7.49" y="12" textLength="19.836">luic</tspan><tspan font-family="DIN OT" font-size="12" font-weight="bold" x="27.146" y="12" textLength="6.5760002">e</tspan></text><g id="id81_Graphic"><path d="M 128.2 144.0002 L 153.4 169.2002 L 128.2 194.4002 L 103 169.2002 Z" fill="white"/><path d="M 128.2 144.0002 L 153.4 169.2002 L 128.2 194.4002 L 103 169.2002 Z" stroke="black" stroke-linecap="round" stroke-linejoin="round" stroke-width="1"/><text transform="translate(114.804 158.6962)" fill="black"><tspan font-family="DIN OT" font-size="15" font-weight="500" x="7.57" y="16" textLength="4.71">f</tspan><tspan font-family="DIN OT" font-size="15" font-weight="500" x="12.055" y="16" textLength="8.175">d</tspan></text></g><g id="id82_Graphic"><rect x="263.031" y="107.0001" width="43.702" height="45.9624" fill="white"/><rect x="263.031" y="107.0001" width="43.702" height="45.9624" stroke="black" stroke-linecap="round" stroke-linejoin="round" stroke-width="1"/><text transform="translate(268.031 119.9813)" fill="black"><tspan font-family="DIN OT" font-size="15" font-weight="500" x="12.441" y="16" textLength="8.97">S</tspan></text></g><line x1="262.54598" y1="135.57536" x2="158.45856" y2="161.64407" marker-end="url(#FilledArrow_Marker)" stroke="black" stroke-linecap="round" stroke-linejoin="round" stroke-width="1"/><text transform="translate(168.65978 122.53505)" fill="black"><tspan font-family="DIN OT" font-size="10" font-weight="500" x=".2" y="10" textLength="25.1">updat</tspan><tspan font-family="DIN OT" font-size="10" font-weight="500" x="25.25" y="10" textLength="12">e r</tspan><tspan font-family="DIN OT" font-size="10" font-weight="500" x="36.95" y="10" textLength="26.629999">eques</tspan><tspan font-family="DIN OT" font-size="10" font-weight="500" x="63.48" y="10" textLength="3.32">t</tspan></text><g id="id71_Graphic"><rect x="263.031" y="212.119" width="43.702" height="45.9624" fill="white"/><rect x="263.031" y="212.119" width="43.702" height="45.9624" stroke="black" stroke-linecap="round" stroke-linejoin="round" stroke-width="1"/><text transform="translate(268.031 225.1002)" fill="black"><tspan font-family="DIN OT" font-size="15" font-weight="500" x="12.441" y="16" textLength="8.97">S</tspan></text></g><line x1="146.39991" y1="176.85503" x2="253.44443" y2="221.87765" marker-end="url(#FilledArrow_Marker)" stroke="black" stroke-linecap="round" stroke-linejoin="round" stroke-width="1"/><text transform="translate(169.15979 225)" fill="black"><tspan font-family="DIN OT" font-size="10" font-weight="500" x=".18" y="10" textLength="25.1">updat</tspan><tspan font-family="DIN OT" font-size="10" font-weight="500" x="25.23" y="10" textLength="12">e r</tspan><tspan font-family="DIN OT" font-size="10" font-weight="500" x="36.93" y="10" textLength="36.89">esponse</tspan></text></g></g></svg>
