<?xml version="1.0"?>
<!DOCTYPE svg PUBLIC "-//W3C//DTD SVG 1.1//EN" "http://www.w3.org/Graphics/SVG/1.1/DTD/svg11.dtd">
<svg xmlns="http://www.w3.org/2000/svg" xmlns:xl="http://www.w3.org/1999/xlink" version="1.1" viewBox="36 147 335 138" width="335pt" height="138pt"><metadata xmlns:dc="http://purl.org/dc/elements/1.1/"><dc:date>2012-07-07 00:52Z</dc:date><!-- Produced by OmniGraffle Professional 5.4 --></metadata><defs><filter id="Shadow" filterUnits="userSpaceOnUse"><feGaussianBlur in="SourceAlpha" result="blur" stdDeviation="3.488"/><feOffset in="blur" result="offset" dx="0" dy="4"/><feFlood flood-color="black" flood-opacity=".75" result="flood"/><feComposite in="flood" in2="offset" operator="in"/></filter><font-face font-family="DIN OT" font-size="15" panose-1="2 11 5 4 2 1 1 2 1 2" units-per-em="1000" underline-position="-117.99999" underline-thickness="68" slope="0" x-height="498.99997" cap-height="719" ascent="1041.0021" descent="-237.00047" font-weight="500"><font-face-src><font-face-name name="DINOT"/></font-face-src></font-face><marker orient="auto" overflow="visible" markerUnits="strokeWidth" id="FilledArrow_Marker" viewBox="-1 -4 10 8" markerWidth="10" markerHeight="8" color="black"><g><path d="M 8 0 L 0 -3 L 0 3 Z" fill="currentColor" stroke="currentColor" stroke-width="1"/></g></marker><font-face font-family="DIN OT" font-size="10" panose-1="2 11 5 4 2 1 1 2 1 2" units-per-em="1000" underline-position="-118" underline-thickness="68" slope="0" x-height="499" cap-height="719" ascent="1041.0021" descent="-237.00047" font-weight="500"><font-face-src><font-face-name name="DINOT"/></font-face-src></font-face></defs><g stroke="none" stroke-opacity="1" stroke-dasharray="none" fill="none" fill-opacity="1"><title>Canvas 2</title><g><title>Layer 1</title><g><use xl:href="#id5_Graphic" filter="url(#Shadow)"/><use xl:href="#id55_Graphic" filter="url(#Shadow)"/></g><g id="id5_Graphic"><path d="M 81.7 163.247 L 106.9 188.447 L 81.7 213.647 L 56.5 188.447 Z" fill="white"/><path d="M 81.7 163.247 L 106.9 188.447 L 81.7 213.647 L 56.5 188.447 Z" stroke="black" stroke-linecap="round" stroke-linejoin="round" stroke-width="1"/><text transform="translate(68.304 177.943)" fill="black"><tspan font-family="DIN OT" font-size="15" font-weight="500" x="1.33" y="16" textLength="25.14">dim</tspan></text></g><g id="id55_Graphic"><rect x="232.629" y="214.685" width="43.702" height="45.9624" fill="white"/><rect x="232.629" y="214.685" width="43.702" height="45.9624" stroke="black" stroke-linecap="round" stroke-linejoin="round" stroke-width="1"/><text transform="translate(237.629 227.6662)" fill="black"><tspan font-family="DIN OT" font-size="15" font-weight="500" x="12.441" y="16" textLength="8.97">S</tspan></text></g><path d="M 100.525695 195.46445 C 109.34958 198.75364 108.39624 203.0773 127 205.333 C 145.60376 207.5887 194.62532 206.12498 212.1594 209 C 220.57028 210.37911 223.98866 212.51916 226.00669 214.87254" marker-end="url(#FilledArrow_Marker)" stroke="black" stroke-linecap="round" stroke-linejoin="round" stroke-width="1"/><text transform="translate(124.02772 193.95142)" fill="black"><tspan font-family="DIN OT" font-size="10" font-weight="500" x="3.485" y="10" textLength="3.32">t</tspan><tspan font-family="DIN OT" font-size="10" font-weight="500" x="6.755" y="10" textLength="18.99">opol</tspan><tspan font-family="DIN OT" font-size="10" font-weight="500" x="25.645" y="10" textLength="50.099998">ogy of netw</tspan><tspan font-family="DIN OT" font-size="10" font-weight="500" x="75.645" y="10" textLength="14.87">ork</tspan><tspan font-family="DIN OT" font-size="10" font-weight="500" x=".09" y="22" textLength="93.82">(in full or in bunches)</tspan></text><text transform="translate(280.167 219.666)" fill="black"><tspan font-family="DIN OT" font-size="10" font-weight="500" x="15.19" y="10" textLength="5.98">S</tspan><tspan font-family="DIN OT" font-size="10" font-weight="500" x="21.12" y="10" textLength="15.98">luic</tspan><tspan font-family="DIN OT" font-size="10" font-weight="500" x="36.95" y="10" textLength="31.4">e adds </tspan><tspan font-family="DIN OT" font-size="10" font-weight="500" x="16.315" y="22" textLength="3.32">t</tspan><tspan font-family="DIN OT" font-size="10" font-weight="500" x="19.585" y="22" textLength="18.99">opol</tspan><tspan font-family="DIN OT" font-size="10" font-weight="500" x="38.475" y="22" textLength="21.01">ogy t</tspan><tspan font-family="DIN OT" font-size="10" font-weight="500" x="59.435" y="22" textLength="7.79">o </tspan><tspan font-family="DIN OT" font-size="10" font-weight="500" x="4.715" y="34" textLength="18.94">curr</tspan><tspan font-family="DIN OT" font-size="10" font-weight="500" x="23.355" y="34" textLength="38.21">ent netw</tspan><tspan font-family="DIN OT" font-size="10" font-weight="500" x="61.465" y="34" textLength="17.360001">ork </tspan><tspan font-family="DIN OT" font-size="10" font-weight="500" x="26.635" y="46" textLength="27.78">model</tspan></text></g></g></svg>
