<?xml version="1.0"?>
<!DOCTYPE svg PUBLIC "-//W3C//DTD SVG 1.1//EN" "http://www.w3.org/Graphics/SVG/1.1/DTD/svg11.dtd">
<svg xmlns="http://www.w3.org/2000/svg" xmlns:xl="http://www.w3.org/1999/xlink" version="1.1" viewBox="44 248 325 195" width="325pt" height="195pt"><metadata xmlns:dc="http://purl.org/dc/elements/1.1/"><dc:date>2012-07-20 23:35Z</dc:date><!-- Produced by OmniGraffle Professional 5.4 --></metadata><defs><filter id="Shadow" filterUnits="userSpaceOnUse"><feGaussianBlur in="SourceAlpha" result="blur" stdDeviation="3.488"/><feOffset in="blur" result="offset" dx="0" dy="4"/><feFlood flood-color="black" flood-opacity=".75" result="flood"/><feComposite in="flood" in2="offset" operator="in"/></filter><font-face font-family="DIN OT" font-size="12" panose-1="2 11 8 4 2 1 1 2 1 2" units-per-em="1000" underline-position="-118" underline-thickness="124" slope="0" x-height="528" cap-height="719" ascent="1041.0022" descent="-237.00049" font-weight="bold"><font-face-src><font-face-name name="DINOT-Bold"/></font-face-src></font-face><font-face font-family="DIN OT" font-size="15" panose-1="2 11 5 4 2 1 1 2 1 2" units-per-em="1000" underline-position="-117.99999" underline-thickness="68" slope="0" x-height="498.99997" cap-height="719" ascent="1041.0021" descent="-237.00047" font-weight="500"><font-face-src><font-face-name name="DINOT"/></font-face-src></font-face><font-face font-family="DIN OT" font-size="10" panose-1="2 11 5 4 2 1 1 2 1 2" units-per-em="1000" underline-position="-118" underline-thickness="68" slope="0" x-height="499" cap-height="719" ascent="1041.0021" descent="-237.00047" font-weight="500"><font-face-src><font-face-name name="DINOT"/></font-face-src></font-face><marker orient="auto" overflow="visible" markerUnits="strokeWidth" id="FilledArrow_Marker" viewBox="-1 -4 10 8" markerWidth="10" markerHeight="8" color="black"><g><path d="M 8 0 L 0 -3 L 0 3 Z" fill="currentColor" stroke="currentColor" stroke-width="1"/></g></marker></defs><g stroke="none" stroke-opacity="1" stroke-dasharray="none" fill="none" fill-opacity="1"><title>Canvas 8</title><g><title>Layer 1</title><g><use xl:href="#id124_Graphic" filter="url(#Shadow)"/><use xl:href="#id55_Graphic" filter="url(#Shadow)"/></g><line x1="152.545" y1="260" x2="151.545" y2="432" stroke="#6f6f6f" stroke-linecap="round" stroke-linejoin="round" stroke-width="1" stroke-dasharray="8,5"/><text transform="translate(59 271.5)" fill="black"><tspan font-family="DIN OT" font-size="12" font-weight="bold" x=".342" y="12" textLength="7.56">C</tspan><tspan font-family="DIN OT" font-size="12" font-weight="bold" x="7.842" y="12" textLength="24.876">lient</tspan></text><text transform="translate(220.83099 271.5)" fill="black"><tspan font-family="DIN OT" font-size="12" font-weight="bold" x=".338" y="12" textLength="7.212">S</tspan><tspan font-family="DIN OT" font-size="12" font-weight="bold" x="7.49" y="12" textLength="19.836">luic</tspan><tspan font-family="DIN OT" font-size="12" font-weight="bold" x="27.146" y="12" textLength="6.5760002">e</tspan></text><g id="id124_Graphic"><ellipse cx="86.1106" cy="351.4812" rx="21.851034" ry="22.981237" fill="white"/><ellipse cx="86.1106" cy="351.4812" rx="21.851034" ry="22.981237" stroke="black" stroke-linecap="round" stroke-linejoin="round" stroke-width="1"/><text transform="translate(73.6298 341.4812)" fill="black"><tspan font-family="DIN OT" font-size="15" font-weight="500" x="6.4433" y="16" textLength="9.705">C</tspan><tspan font-family="DIN OT" font-size="10" font-weight="500" x="16.0733" y="16" textLength="2.52">i</tspan></text></g><g id="id55_Graphic"><rect x="216.129" y="362.5" width="43.702" height="45.9624" fill="white"/><rect x="216.129" y="362.5" width="43.702" height="45.9624" stroke="black" stroke-linecap="round" stroke-linejoin="round" stroke-width="1"/><text transform="translate(221.129 375.4812)" fill="black"><tspan font-family="DIN OT" font-size="15" font-weight="500" x="12.441" y="16" textLength="8.97">S</tspan></text></g><line x1="107.97319" y1="356.37572" x2="205.98022" y2="378.3172" marker-end="url(#FilledArrow_Marker)" stroke="black" stroke-linecap="round" stroke-linejoin="round" stroke-width="1"/><text transform="translate(121.015244 342.15595)" fill="black"><tspan font-family="DIN OT" font-size="10" font-weight="500" x=".315" y="10" textLength="4.21">r</tspan><tspan font-family="DIN OT" font-size="10" font-weight="500" x="4.225" y="10" textLength="26.629999">eques</tspan><tspan font-family="DIN OT" font-size="10" font-weight="500" x="30.755" y="10" textLength="47.93">t mummify</tspan></text><text transform="translate(270.22847 361.4812)" fill="black"><tspan font-family="DIN OT" font-size="10" font-weight="500" x="4.855" y="10" textLength="14.69">sav</tspan><tspan font-family="DIN OT" font-size="10" font-weight="500" x="19.445" y="10" textLength="45.759998">es off curr</tspan><tspan font-family="DIN OT" font-size="10" font-weight="500" x="64.905" y="10" textLength="14.24">ent</tspan><tspan font-family="DIN OT" font-size="10" font-weight="500" x="6.605" y="22" textLength="21.209999">fluor</tspan><tspan font-family="DIN OT" font-size="10" font-weight="500" x="27.515" y="22" textLength="15.16">osc</tspan><tspan font-family="DIN OT" font-size="10" font-weight="500" x="42.525" y="22" textLength="34.869999">ope and</tspan><tspan font-family="DIN OT" font-size="10" font-weight="500" x=".485" y="34" textLength="42.169998">windshiel</tspan><tspan font-family="DIN OT" font-size="10" font-weight="500" x="42.555" y="34" textLength="12.9">d s</tspan><tspan font-family="DIN OT" font-size="10" font-weight="500" x="55.355" y="34" textLength="3.32">t</tspan><tspan font-family="DIN OT" font-size="10" font-weight="500" x="58.625" y="34" textLength="8.58">at</tspan><tspan font-family="DIN OT" font-size="10" font-weight="500" x="67.155" y="34" textLength="11.1099997">e t</tspan><tspan font-family="DIN OT" font-size="10" font-weight="500" x="78.215" y="34" textLength="5.3000002">o</tspan><tspan font-family="DIN OT" font-size="10" font-weight="500" x="22.235" y="46" textLength="12.42">giv</tspan><tspan font-family="DIN OT" font-size="10" font-weight="500" x="34.555" y="46" textLength="22.01">en fil</tspan><tspan font-family="DIN OT" font-size="10" font-weight="500" x="56.465" y="46" textLength="5.3000002">e</tspan></text></g></g></svg>
