<?xml version="1.0"?>
<!DOCTYPE svg PUBLIC "-//W3C//DTD SVG 1.1//EN" "http://www.w3.org/Graphics/SVG/1.1/DTD/svg11.dtd">
<svg xmlns="http://www.w3.org/2000/svg" xmlns:xl="http://www.w3.org/1999/xlink" version="1.1" viewBox="328 40 289 241" width="289pt" height="241pt"><metadata xmlns:dc="http://purl.org/dc/elements/1.1/"><dc:date>2012-10-19 18:10Z</dc:date><!-- Produced by OmniGraffle Professional 5.4.2 --></metadata><defs><font-face font-family="DIN OT" font-size="12" panose-1="2 11 8 4 2 1 1 2 1 2" units-per-em="1000" underline-position="-118" underline-thickness="124" slope="0" x-height="528" cap-height="719" ascent="1041.0022" descent="-237.00049" font-weight="bold"><font-face-src><font-face-name name="DINOT-Bold"/></font-face-src></font-face><font-face font-family="DIN OT" font-size="15" panose-1="2 11 5 4 2 1 1 2 1 2" units-per-em="1000" underline-position="-117.99999" underline-thickness="68" slope="0" x-height="498.99997" cap-height="719" ascent="1041.0021" descent="-237.00047" font-weight="500"><font-face-src><font-face-name name="DINOT"/></font-face-src></font-face><font-face font-family="DIN OT" font-size="10" panose-1="2 11 5 4 2 1 1 2 1 2" units-per-em="1000" underline-position="-118" underline-thickness="68" slope="0" x-height="499" cap-height="719" ascent="1041.0021" descent="-237.00047" font-weight="500"><font-face-src><font-face-name name="DINOT"/></font-face-src></font-face><marker orient="auto" overflow="visible" markerUnits="strokeWidth" id="FilledArrow_Marker" viewBox="-1 -4 10 8" markerWidth="10" markerHeight="8" color="black"><g><path d="M 8 0 L 0 -3 L 0 3 Z" fill="currentColor" stroke="currentColor" stroke-width="1"/></g></marker></defs><g stroke="none" stroke-opacity="1" stroke-dasharray="none" fill="none" fill-opacity="1"><title>Fluoroscope Creation</title><g><title>Layer 1</title><line x1="434.65904" y1="42" x2="433.65904" y2="279" stroke="#6f6f6f" stroke-linecap="round" stroke-linejoin="round" stroke-width="1" stroke-dasharray="8,5"/><text transform="translate(341.11404 53.5)" fill="black"><tspan font-family="DIN OT" font-size="12" font-weight="bold" x=".342" y="12" textLength="7.56">C</tspan><tspan font-family="DIN OT" font-size="12" font-weight="bold" x="7.842" y="12" textLength="24.876">lient</tspan></text><text transform="translate(502.94507 53.5)" fill="black"><tspan font-family="DIN OT" font-size="12" font-weight="bold" x=".338" y="12" textLength="7.212">S</tspan><tspan font-family="DIN OT" font-size="12" font-weight="bold" x="7.49" y="12" textLength="19.836">luic</tspan><tspan font-family="DIN OT" font-size="12" font-weight="bold" x="27.146" y="12" textLength="6.5760002">e</tspan></text><ellipse cx="359.70633" cy="128" rx="21.851034" ry="22.981237" fill="white"/><ellipse cx="359.70633" cy="128" rx="21.851034" ry="22.981237" stroke="black" stroke-linecap="round" stroke-linejoin="round" stroke-width="1"/><text transform="translate(347.22553 118)" fill="black"><tspan font-family="DIN OT" font-size="15" font-weight="500" x="6.4433" y="16" textLength="9.705">C</tspan><tspan font-family="DIN OT" font-size="10" font-weight="500" x="16.0733" y="16" textLength="2.52">i</tspan></text><rect x="496.86824" y="150.5" width="43.702" height="45.9624" fill="white"/><rect x="496.86824" y="150.5" width="43.702" height="45.9624" stroke="black" stroke-linecap="round" stroke-linejoin="round" stroke-width="1"/><text transform="translate(501.86824 163.4812)" fill="black"><tspan font-family="DIN OT" font-size="15" font-weight="500" x="12.441" y="16" textLength="8.97">S</tspan></text><path d="M 381.03115 135.0484 C 390.05788 138.03197 391.71304 142.06376 408.11404 144 C 424.51505 145.93624 464.72497 144.28726 479.44704 146.667 C 485.31862 147.61611 488.3104 149.03967 490.14512 150.65382" marker-end="url(#FilledArrow_Marker)" stroke="black" stroke-linecap="round" stroke-linejoin="round" stroke-width="1"/><text transform="translate(401.21766 104.168856)" fill="black"><tspan font-family="DIN OT" font-size="10" font-weight="500" x="6.25645" y="10" textLength="4.21">r</tspan><tspan font-family="DIN OT" font-size="10" font-weight="500" x="10.16645" y="10" textLength="26.629999">eques</tspan><tspan font-family="DIN OT" font-size="10" font-weight="500" x="36.69645" y="10" textLength="16.73">t ne</tspan><tspan font-family="DIN OT" font-size="10" font-weight="500" x="53.37645" y="10" textLength="9.7299995">w </tspan><tspan font-family="DIN OT" font-size="10" font-weight="500" x="7.45145" y="22" textLength="21.209999">fluor</tspan><tspan font-family="DIN OT" font-size="10" font-weight="500" x="28.36145" y="22" textLength="15.16">osc</tspan><tspan font-family="DIN OT" font-size="10" font-weight="500" x="43.37145" y="22" textLength="16.049999">ope</tspan><tspan font-family="DIN OT" font-size="10" font-weight="500" x="14.83645" y="34" textLength="13.1">ins</tspan><tspan font-family="DIN OT" font-size="10" font-weight="500" x="27.83645" y="34" textLength="3.32">t</tspan><tspan font-family="DIN OT" font-size="10" font-weight="500" x="31.10645" y="34" textLength="15.78">anc</tspan><tspan font-family="DIN OT" font-size="10" font-weight="500" x="46.73645" y="34" textLength="5.3000002">e</tspan></text><text transform="translate(545.01304 149.4812)" fill="black"><tspan font-family="DIN OT" font-size="10" font-weight="500" x="8.70145" y="10" textLength="42.28">adds a ne</tspan><tspan font-family="DIN OT" font-size="10" font-weight="500" x="50.93145" y="10" textLength="9.7299995">w </tspan><tspan font-family="DIN OT" font-size="10" font-weight="500" x="7.45145" y="22" textLength="21.209999">fluor</tspan><tspan font-family="DIN OT" font-size="10" font-weight="500" x="28.36145" y="22" textLength="15.16">osc</tspan><tspan font-family="DIN OT" font-size="10" font-weight="500" x="43.37145" y="22" textLength="16.049999">ope</tspan><tspan font-family="DIN OT" font-size="10" font-weight="500" x="8.67145" y="34" textLength="3.32">t</tspan><tspan font-family="DIN OT" font-size="10" font-weight="500" x="11.94145" y="34" textLength="48.75">o the atlas </tspan><tspan font-family="DIN OT" font-size="10" font-weight="500" x="23.69645" y="46" textLength="12.29">vie</tspan><tspan font-family="DIN OT" font-size="10" font-weight="500" x="35.93645" y="46" textLength="7.2399998">w</tspan></text><ellipse cx="352.13974" cy="242.33495" rx="22.025736" ry="23.164988" fill="white"/><ellipse cx="352.13974" cy="242.33495" rx="22.025736" ry="23.164988" stroke="black" stroke-linecap="round" stroke-linejoin="round" stroke-width="1"/><text transform="translate(339.51918 232.33495)" fill="black"><tspan font-family="DIN OT" font-size="15" font-weight="500" x="7.84306" y="16" textLength="9.705">C</tspan></text><ellipse cx="359.53164" cy="242.33495" rx="22.025736" ry="23.164988" fill="white"/><ellipse cx="359.53164" cy="242.33495" rx="22.025736" ry="23.164988" stroke="black" stroke-linecap="round" stroke-linejoin="round" stroke-width="1"/><text transform="translate(346.91108 232.33495)" fill="black"><tspan font-family="DIN OT" font-size="15" font-weight="500" x="7.84306" y="16" textLength="9.705">C</tspan></text><ellipse cx="366.92354" cy="242.33495" rx="22.025736" ry="23.164988" fill="white"/><ellipse cx="366.92354" cy="242.33495" rx="22.025736" ry="23.164988" stroke="black" stroke-linecap="round" stroke-linejoin="round" stroke-width="1"/><text transform="translate(354.30298 232.33495)" fill="black"><tspan font-family="DIN OT" font-size="15" font-weight="500" x="7.84306" y="16" textLength="9.705">C</tspan></text><ellipse cx="373.58024" cy="242.33495" rx="22.025736" ry="23.164988" fill="white"/><ellipse cx="373.58024" cy="242.33495" rx="22.025736" ry="23.164988" stroke="black" stroke-linecap="round" stroke-linejoin="round" stroke-width="1"/><text transform="translate(360.95968 232.33495)" fill="black"><tspan font-family="DIN OT" font-size="15" font-weight="500" x="7.84306" y="16" textLength="9.705">C</tspan></text><path d="M 496.4271 185.3741 C 490.10105 188.74907 492.1644 193.3404 477.44704 195.5 C 462.72967 197.6596 423.03524 193.57093 408.11404 198.333 C 397.82075 201.61808 395.3191 208.53807 392.54688 215.33127" marker-end="url(#FilledArrow_Marker)" stroke="black" stroke-linecap="round" stroke-linejoin="round" stroke-width="1"/><text transform="translate(422.34158 182.93994)" fill="black"><tspan font-family="DIN OT" font-size="10" font-weight="500" x=".1" y="10" textLength="4.21">r</tspan><tspan font-family="DIN OT" font-size="10" font-weight="500" x="4.01" y="10" textLength="36.89">esponse</tspan></text><path d="M 503.10878 196.87832 C 497.45709 205.34915 500.5322 217.58581 486.152 222.29334 C 471.7718 227.00087 432.0678 223.18386 416.819 225.12634 C 409.5639 226.05054 405.86674 227.42687 403.18844 228.93263" marker-end="url(#FilledArrow_Marker)" stroke="black" stroke-linecap="round" stroke-linejoin="round" stroke-width="1"/><text transform="translate(413.31407 210.72632)" fill="black"><tspan font-family="DIN OT" font-size="10" font-weight="500" x=".215" y="10" textLength="10.92">ne</tspan><tspan font-family="DIN OT" font-size="10" font-weight="500" x="11.085" y="10" textLength="30.94">w fluor</tspan><tspan font-family="DIN OT" font-size="10" font-weight="500" x="41.725" y="10" textLength="15.16">osc</tspan><tspan font-family="DIN OT" font-size="10" font-weight="500" x="56.735" y="10" textLength="16.049999">ope</tspan><tspan font-family="DIN OT" font-size="10" font-weight="500" x="28.665" y="22" textLength="15.67">psa</tspan></text></g></g></svg>
