<?xml version="1.0"?>
<!DOCTYPE svg PUBLIC "-//W3C//DTD SVG 1.1//EN" "http://www.w3.org/Graphics/SVG/1.1/DTD/svg11.dtd">
<svg xmlns="http://www.w3.org/2000/svg" xmlns:xl="http://www.w3.org/1999/xlink" version="1.1" viewBox="93 35 351 236" width="351pt" height="236pt"><metadata xmlns:dc="http://purl.org/dc/elements/1.1/"><dc:date>2012-07-09 18:31Z</dc:date><!-- Produced by OmniGraffle Professional 5.4 --></metadata><defs><filter id="Shadow" filterUnits="userSpaceOnUse"><feGaussianBlur in="SourceAlpha" result="blur" stdDeviation="3.488"/><feOffset in="blur" result="offset" dx="0" dy="4"/><feFlood flood-color="black" flood-opacity=".75" result="flood"/><feComposite in="flood" in2="offset" operator="in"/></filter><font-face font-family="DIN OT" font-size="12" panose-1="2 11 8 4 2 1 1 2 1 2" units-per-em="1000" underline-position="-118" underline-thickness="124" slope="0" x-height="528" cap-height="719" ascent="1041.0022" descent="-237.00049" font-weight="bold"><font-face-src><font-face-name name="DINOT-Bold"/></font-face-src></font-face><font-face font-family="DIN OT" font-size="15" panose-1="2 11 5 4 2 1 1 2 1 2" units-per-em="1000" underline-position="-117.99999" underline-thickness="68" slope="0" x-height="498.99997" cap-height="719" ascent="1041.0021" descent="-237.00047" font-weight="500"><font-face-src><font-face-name name="DINOT"/></font-face-src></font-face><marker orient="auto" overflow="visible" markerUnits="strokeWidth" id="FilledArrow_Marker" viewBox="-1 -4 10 8" markerWidth="10" markerHeight="8" color="black"><g><path d="M 8 0 L 0 -3 L 0 3 Z" fill="currentColor" stroke="currentColor" stroke-width="1"/></g></marker><font-face font-family="DIN OT" font-size="10" panose-1="2 11 5 4 2 1 1 2 1 2" units-per-em="1000" underline-position="-118" underline-thickness="68" slope="0" x-height="499" cap-height="719" ascent="1041.0021" descent="-237.00047" font-weight="500"><font-face-src><font-face-name name="DINOT"/></font-face-src></font-face><font-face font-family="DIN Offc" font-size="10" panose-1="2 11 5 4 2 1 1 2 1 2" units-per-em="1000" underline-position="-114" underline-thickness="51" slope="0" x-height="492" cap-height="712" ascent="1041.0021" descent="-237.00047" font-weight="500"><font-face-src><font-face-name name="DINOffc"/></font-face-src></font-face></defs><g stroke="none" stroke-opacity="1" stroke-dasharray="none" fill="none" fill-opacity="1"><title>Canvas 3</title><g><title>Layer 1</title><g><use xl:href="#id5_Graphic" filter="url(#Shadow)"/><use xl:href="#id55_Graphic" filter="url(#Shadow)"/></g><line x1="228.545" y1="46" x2="228.95117" y2="77.12092" stroke="#6f6f6f" stroke-linecap="round" stroke-linejoin="round" stroke-width="1" stroke-dasharray="8,5"/><text transform="translate(107 60)" fill="black"><tspan font-family="DIN OT" font-size="12" font-weight="bold" x=".476" y="12" textLength="7.968">R</tspan><tspan font-family="DIN OT" font-size="12" font-weight="bold" x="8.024" y="12" textLength="19.667999">eal </tspan><tspan font-family="DIN OT" font-size="12" font-weight="bold" x="27.752" y="12" textLength="6.972">T</tspan><tspan font-family="DIN OT" font-size="12" font-weight="bold" x="34.664" y="12" textLength="23.172001">ime </tspan><tspan font-family="DIN OT" font-size="12" font-weight="bold" x="57.896" y="12" textLength="8.1359997">U</tspan><tspan font-family="DIN OT" font-size="12" font-weight="bold" x="65.972" y="12" textLength="24.084">pdat</tspan><tspan font-family="DIN OT" font-size="12" font-weight="bold" x="89.996" y="12" textLength="12.588">es</tspan><tspan font-family="DIN OT" font-size="12" font-weight="bold" x="20.474" y="27" textLength="9.852">M</tspan><tspan font-family="DIN OT" font-size="12" font-weight="bold" x="30.266" y="27" textLength="52.32">echanism</tspan></text><text transform="translate(325.272 60.5)" fill="black"><tspan font-family="DIN OT" font-size="12" font-weight="bold" x=".338" y="12" textLength="7.212">S</tspan><tspan font-family="DIN OT" font-size="12" font-weight="bold" x="7.49" y="12" textLength="19.836">luic</tspan><tspan font-family="DIN OT" font-size="12" font-weight="bold" x="27.146" y="12" textLength="6.5760002">e</tspan></text><g id="id5_Graphic"><path d="M 159.2 158.878 L 184.4 184.078 L 159.2 209.278 L 134 184.078 Z" fill="white"/><path d="M 159.2 158.878 L 184.4 184.078 L 159.2 209.278 L 134 184.078 Z" stroke="black" stroke-linecap="round" stroke-linejoin="round" stroke-width="1"/><text transform="translate(145.804 173.574)" fill="black"><tspan font-family="DIN OT" font-size="15" font-weight="500" x="1.66" y="16" textLength="24.48">rtm</tspan></text></g><g id="id55_Graphic"><rect x="292.129" y="197" width="43.702" height="45.9624" fill="white"/><rect x="292.129" y="197" width="43.702" height="45.9624" stroke="black" stroke-linecap="round" stroke-linejoin="round" stroke-width="1"/><text transform="translate(297.129 209.9812)" fill="black"><tspan font-family="DIN OT" font-size="15" font-weight="500" x="12.441" y="16" textLength="8.97">S</tspan></text></g><path d="M 179.2019 189.89585 C 186.5782 192.04135 186.4793 195.14909 201.333 196.333 C 216.1867 197.51691 253.27627 194.92981 268.333 197 C 276.69066 198.14912 280.5664 200.4373 283.69175 202.91604" marker-end="url(#FilledArrow_Marker)" stroke="black" stroke-linecap="round" stroke-linejoin="round" stroke-width="1"/><text transform="translate(206.333 183.121)" fill="black"><tspan font-family="DIN OT" font-size="10" font-weight="500" x=".19" y="10" textLength="29.69">observ</tspan><tspan font-family="DIN OT" font-size="10" font-weight="500" x="29.83" y="10" textLength="26.98">ations</tspan></text><text transform="translate(346 202)" fill="black"><tspan font-family="DIN Offc" font-size="10" font-weight="500" x="0" y="10" textLength="21.86">Sluic</tspan><tspan font-family="DIN Offc" font-size="10" font-weight="500" x="21.71" y="10" textLength="32.89">e updat</tspan><tspan font-family="DIN Offc" font-size="10" font-weight="500" x="54.55" y="10" textLength="10.26">es</tspan><tspan font-family="DIN Offc" font-size="10" font-weight="500" x="0" y="22" textLength="49.75">the attribut</tspan><tspan font-family="DIN Offc" font-size="10" font-weight="500" x="49.7" y="22" textLength="20.1">es fr</tspan><tspan font-family="DIN Offc" font-size="10" font-weight="500" x="69.5" y="22" textLength="14.09">om</tspan><tspan font-family="DIN Offc" font-size="10" font-weight="500" x="0" y="34" textLength="26.39">the pr</tspan><tspan font-family="DIN Offc" font-size="10" font-weight="500" x="26.09" y="34" textLength="8.62">ot</tspan><tspan font-family="DIN Offc" font-size="10" font-weight="500" x="34.66" y="34" textLength="13.4399996">ein</tspan></text><text transform="translate(235.545 82.12092) rotate(90)" fill="black"><tspan font-family="DIN Offc" font-size="10" font-weight="500" x="0" y="10" textLength="23.290001">obs-t</tspan><tspan font-family="DIN Offc" font-size="10" font-weight="500" x="23.24" y="10" textLength="30.5">o-sluic</tspan><tspan font-family="DIN Offc" font-size="10" font-weight="500" x="53.59" y="10" textLength="26.78">e pool</tspan></text><line x1="228.545" y1="168.121" x2="229" y2="259.12109" stroke="#6f6f6f" stroke-linecap="round" stroke-linejoin="round" stroke-width="1" stroke-dasharray="8,5"/></g></g></svg>
