<?xml version="1.0"?>
<!DOCTYPE svg PUBLIC "-//W3C//DTD SVG 1.1//EN" "http://www.w3.org/Graphics/SVG/1.1/DTD/svg11.dtd">
<svg xmlns="http://www.w3.org/2000/svg" xmlns:xl="http://www.w3.org/1999/xlink" version="1.1" viewBox="13 36 486 488" width="486pt" height="488pt"><metadata xmlns:dc="http://purl.org/dc/elements/1.1/"><dc:date>2012-07-16 14:07Z</dc:date><!-- Produced by OmniGraffle Professional 5.4 --></metadata><defs><filter id="Shadow" filterUnits="userSpaceOnUse"><feGaussianBlur in="SourceAlpha" result="blur" stdDeviation="3.488"/><feOffset in="blur" result="offset" dx="0" dy="4"/><feFlood flood-color="black" flood-opacity=".75" result="flood"/><feComposite in="flood" in2="offset" operator="in"/></filter><font-face font-family="DIN OT" font-size="12" panose-1="2 11 8 4 2 1 1 2 1 2" units-per-em="1000" underline-position="-118" underline-thickness="124" slope="0" x-height="528" cap-height="719" ascent="1041.0022" descent="-237.00049" font-weight="bold"><font-face-src><font-face-name name="DINOT-Bold"/></font-face-src></font-face><font-face font-family="DIN OT" font-size="15" panose-1="2 11 5 4 2 1 1 2 1 2" units-per-em="1000" underline-position="-117.99999" underline-thickness="68" slope="0" x-height="498.99997" cap-height="719" ascent="1041.0021" descent="-237.00047" font-weight="500"><font-face-src><font-face-name name="DINOT"/></font-face-src></font-face><marker orient="auto" overflow="visible" markerUnits="strokeWidth" id="FilledArrow_Marker" viewBox="-1 -3 6 6" markerWidth="6" markerHeight="6" color="black"><g><path d="M 3.7333333 0 L 0 -1.4 L 0 1.4 Z" fill="currentColor" stroke="currentColor" stroke-width="1"/></g></marker><font-face font-family="DIN OT" font-size="10" panose-1="2 11 5 4 2 1 1 2 1 2" units-per-em="1000" underline-position="-118" underline-thickness="68" slope="0" x-height="499" cap-height="719" ascent="1041.0021" descent="-237.00047" font-weight="500"><font-face-src><font-face-name name="DINOT"/></font-face-src></font-face><marker orient="auto" overflow="visible" markerUnits="strokeWidth" id="FilledArrow_Marker_2" viewBox="-1 -3 6 6" markerWidth="6" markerHeight="6" color="black"><g><path d="M 3.2 0 L 0 -1.2 L 0 1.2 Z" fill="currentColor" stroke="currentColor" stroke-width="1"/></g></marker><marker orient="auto" overflow="visible" markerUnits="strokeWidth" id="FilledArrow_Marker_3" viewBox="-1 -4 10 8" markerWidth="10" markerHeight="8" color="black"><g><path d="M 8 0 L 0 -3 L 0 3 Z" fill="currentColor" stroke="currentColor" stroke-width="1"/></g></marker><font-face font-family="DIN Offc" font-size="10" panose-1="2 11 5 4 2 1 1 2 1 2" units-per-em="1000" underline-position="-114" underline-thickness="51" slope="0" x-height="492" cap-height="712" ascent="1041.0021" descent="-237.00047" font-weight="500"><font-face-src><font-face-name name="DINOffc"/></font-face-src></font-face></defs><g stroke="none" stroke-opacity="1" stroke-dasharray="none" fill="none" fill-opacity="1"><title>Initial Startup</title><g><title>Layer 1</title><g><use xl:href="#id5_Graphic" filter="url(#Shadow)"/><use xl:href="#id55_Graphic" filter="url(#Shadow)"/><use xl:href="#id70_Graphic" filter="url(#Shadow)"/><use xl:href="#id71_Graphic" filter="url(#Shadow)"/><use xl:href="#id83_Graphic" filter="url(#Shadow)"/><use xl:href="#id86_Graphic" filter="url(#Shadow)"/><use xl:href="#id90_Graphic" filter="url(#Shadow)"/><use xl:href="#id92_Graphic" filter="url(#Shadow)"/></g><line x1="270.167" y1="55" x2="269.167" y2="510" stroke="#6f6f6f" stroke-linecap="round" stroke-linejoin="round" stroke-width="1" stroke-dasharray="8,5"/><text transform="translate(147.2 50.8)" fill="black"><tspan font-family="DIN OT" font-size="12" font-weight="bold" x=".342" y="12" textLength="7.56">C</tspan><tspan font-family="DIN OT" font-size="12" font-weight="bold" x="7.842" y="12" textLength="24.876">lient</tspan></text><text transform="translate(392.772 50.8)" fill="black"><tspan font-family="DIN OT" font-size="12" font-weight="bold" x=".338" y="12" textLength="7.212">S</tspan><tspan font-family="DIN OT" font-size="12" font-weight="bold" x="7.49" y="12" textLength="19.836">luic</tspan><tspan font-family="DIN OT" font-size="12" font-weight="bold" x="27.146" y="12" textLength="6.5760002">e</tspan></text><g id="id5_Graphic"><path d="M 163.7 86.588 L 188.9 111.788 L 163.7 136.988 L 138.5 111.788 Z" fill="white"/><path d="M 163.7 86.588 L 188.9 111.788 L 163.7 136.988 L 138.5 111.788 Z" stroke="black" stroke-linecap="round" stroke-linejoin="round" stroke-width="1"/><text transform="translate(150.304 101.284)" fill="black"><tspan font-family="DIN OT" font-size="15" font-weight="500" x="9.1225" y="16" textLength="9.705">C</tspan></text></g><g id="id55_Graphic"><rect x="355.629" y="125" width="43.702" height="45.9624" fill="white"/><rect x="355.629" y="125" width="43.702" height="45.9624" stroke="black" stroke-linecap="round" stroke-linejoin="round" stroke-width="1"/><text transform="translate(360.629 137.9812)" fill="black"><tspan font-family="DIN OT" font-size="15" font-weight="500" x="12.441" y="16" textLength="8.97">S</tspan></text></g><line x1="185.74432" y1="115.52013" x2="339.4591" y2="141.54421" marker-end="url(#FilledArrow_Marker)" stroke="black" stroke-linecap="round" stroke-linejoin="round" stroke-width="3" stroke-dasharray="4,4"/><text transform="translate(27 100.794)" fill="black"><tspan font-family="DIN OT" font-size="10" font-weight="500" x="12.385" y="10" textLength="6.4699998">C</tspan><tspan font-family="DIN OT" font-size="10" font-weight="500" x="18.805" y="10" textLength="48.31">lient tries t</tspan><tspan font-family="DIN OT" font-size="10" font-weight="500" x="67.065" y="10" textLength="12.6899996">o c</tspan><tspan font-family="DIN OT" font-size="10" font-weight="500" x="79.605" y="10" textLength="30.06">onnect</tspan><tspan font-family="DIN OT" font-size="10" font-weight="500" x="12.63" y="22" textLength="3.32">t</tspan><tspan font-family="DIN OT" font-size="10" font-weight="500" x="15.9" y="22" textLength="93.47">o a heartbeat pool on</tspan><tspan font-family="DIN OT" font-size="10" font-weight="500" x="7.61" y="34" textLength="37.669998">the sluic</tspan><tspan font-family="DIN OT" font-size="10" font-weight="500" x="45.13" y="34" textLength="64.11">e machine onc</tspan><tspan font-family="DIN OT" font-size="10" font-weight="500" x="109.09" y="34" textLength="5.3000002">e</tspan><tspan font-family="DIN OT" font-size="10" font-weight="500" x=".485" y="46" textLength="5.3000002">e</tspan><tspan font-family="DIN OT" font-size="10" font-weight="500" x="5.685" y="46" textLength="4.4699998">v</tspan><tspan font-family="DIN OT" font-size="10" font-weight="500" x="10.055" y="46" textLength="31.63">ery sec</tspan><tspan font-family="DIN OT" font-size="10" font-weight="500" x="41.535" y="46" textLength="39.21">ond (mat</tspan><tspan font-family="DIN OT" font-size="10" font-weight="500" x="80.695" y="46" textLength="40.82">ching the</tspan><tspan font-family="DIN OT" font-size="10" font-weight="500" x=".325" y="58" textLength="5.3000002">e</tspan><tspan font-family="DIN OT" font-size="10" font-weight="500" x="5.425" y="58" textLength="23.75">xpect</tspan><tspan font-family="DIN OT" font-size="10" font-weight="500" x="29.125" y="58" textLength="17.450001">ed r</tspan><tspan font-family="DIN OT" font-size="10" font-weight="500" x="46.475" y="58" textLength="8.58">at</tspan><tspan font-family="DIN OT" font-size="10" font-weight="500" x="55.005" y="58" textLength="61.76">e of heartbeat</tspan><tspan font-family="DIN OT" font-size="10" font-weight="500" x="116.715" y="58" textLength="4.96">s</tspan><tspan font-family="DIN OT" font-size="10" font-weight="500" x="23.805" y="70" textLength="29.040001">sent fr</tspan><tspan font-family="DIN OT" font-size="10" font-weight="500" x="52.545" y="70" textLength="37.52">om sluic</tspan><tspan font-family="DIN OT" font-size="10" font-weight="500" x="89.915" y="70" textLength="8.2799997">e)</tspan></text><g id="id70_Graphic"><path d="M 163.7 299 L 188.9 324.2 L 163.7 349.4 L 138.5 324.2 Z" fill="white"/><path d="M 163.7 299 L 188.9 324.2 L 163.7 349.4 L 138.5 324.2 Z" stroke="black" stroke-linecap="round" stroke-linejoin="round" stroke-width="1"/><text transform="translate(150.304 313.696)" fill="black"><tspan font-family="DIN OT" font-size="15" font-weight="500" x="9.1225" y="16" textLength="9.705">C</tspan></text></g><g id="id71_Graphic"><rect x="355.629" y="348.934" width="43.702" height="45.9624" fill="white"/><rect x="355.629" y="348.934" width="43.702" height="45.9624" stroke="black" stroke-linecap="round" stroke-linejoin="round" stroke-width="1"/><text transform="translate(360.629 361.9152)" fill="black"><tspan font-family="DIN OT" font-size="15" font-weight="500" x="12.441" y="16" textLength="8.97">S</tspan></text></g><line x1="184.78973" y1="328.90718" x2="340.79402" y2="363.72697" marker-end="url(#FilledArrow_Marker_2)" stroke="black" stroke-linecap="round" stroke-linejoin="round" stroke-width="4"/><text transform="translate(408.167 375.6)" fill="black"><tspan font-family="DIN OT" font-size="10" font-weight="500" x="1.505" y="10" textLength="5.98">S</tspan><tspan font-family="DIN OT" font-size="10" font-weight="500" x="7.435" y="10" textLength="15.98">luic</tspan><tspan font-family="DIN OT" font-size="10" font-weight="500" x="23.265" y="10" textLength="34.310001">e applic</tspan><tspan font-family="DIN OT" font-size="10" font-weight="500" x="57.525" y="10" textLength="24.51">ation </tspan><tspan font-family="DIN OT" font-size="10" font-weight="500" x="7.32" y="22" textLength="68.9">begins running </tspan><tspan font-family="DIN OT" font-size="10" font-weight="500" x="8.18" y="34" textLength="67.18">and depositing </tspan><tspan font-family="DIN OT" font-size="10" font-weight="500" x="7.14" y="46" textLength="43.04">heartbeat</tspan><tspan font-family="DIN OT" font-size="10" font-weight="500" x="50.13" y="46" textLength="26.27">s at a </tspan><tspan font-family="DIN OT" font-size="10" font-weight="500" x="8.01" y="58" textLength="4.21">r</tspan><tspan font-family="DIN OT" font-size="10" font-weight="500" x="12.12" y="58" textLength="8.58">at</tspan><tspan font-family="DIN OT" font-size="10" font-weight="500" x="20.65" y="58" textLength="54.88">e of one per </tspan><tspan font-family="DIN OT" font-size="10" font-weight="500" x="24.835" y="70" textLength="15.16">sec</tspan><tspan font-family="DIN OT" font-size="10" font-weight="500" x="39.845" y="70" textLength="16.370001">ond</tspan></text><text transform="translate(47 308.4)" fill="black"><tspan font-family="DIN OT" font-size="10" font-weight="500" x="7.955" y="10" textLength="6.4699998">C</tspan><tspan font-family="DIN OT" font-size="10" font-weight="500" x="14.375" y="10" textLength="32.61">lient lis</tspan><tspan font-family="DIN OT" font-size="10" font-weight="500" x="46.885" y="10" textLength="3.32">t</tspan><tspan font-family="DIN OT" font-size="10" font-weight="500" x="50.155" y="10" textLength="21.69">ens t</tspan><tspan font-family="DIN OT" font-size="10" font-weight="500" x="71.795" y="10" textLength="7.79">o </tspan><tspan font-family="DIN OT" font-size="10" font-weight="500" x="2.745" y="22" textLength="70.15">heartbeat pool f</tspan><tspan font-family="DIN OT" font-size="10" font-weight="500" x="72.745" y="22" textLength="9.51">or</tspan><tspan font-family="DIN OT" font-size="10" font-weight="500" x=".175" y="34" textLength="62.94">a heartbeat pr</tspan><tspan font-family="DIN OT" font-size="10" font-weight="500" x="62.815" y="34" textLength="8.62">ot</tspan><tspan font-family="DIN OT" font-size="10" font-weight="500" x="71.385" y="34" textLength="13.4399996">ein</tspan></text><g id="id83_Graphic"><rect x="355.629" y="195.068" width="43.702" height="45.9624" fill="white"/><rect x="355.629" y="195.068" width="43.702" height="45.9624" stroke="black" stroke-linecap="round" stroke-linejoin="round" stroke-width="1"/><text transform="translate(360.629 208.0492)" fill="black"><tspan font-family="DIN OT" font-size="15" font-weight="500" x="12.441" y="16" textLength="8.97">S</tspan></text></g><line x1="377.48" y1="171.4624" x2="377.48" y2="194.568" stroke="black" stroke-linecap="round" stroke-linejoin="round" stroke-width="1" stroke-dasharray="1,4"/><text transform="translate(399.334 160.136)" fill="black"><tspan font-family="DIN OT" font-size="10" font-weight="500" x="11.1615" y="10" textLength="5.98">S</tspan><tspan font-family="DIN OT" font-size="10" font-weight="500" x="17.0915" y="10" textLength="15.98">luic</tspan><tspan font-family="DIN OT" font-size="10" font-weight="500" x="32.9215" y="10" textLength="48.29">e machine </tspan><tspan font-family="DIN OT" font-size="10" font-weight="500" x="16.6115" y="22" textLength="19.370001">boot</tspan><tspan font-family="DIN OT" font-size="10" font-weight="500" x="35.9315" y="22" textLength="37.34">s up and</tspan><tspan font-family="DIN OT" font-size="10" font-weight="500" x="6.9615" y="34" textLength="3.32">t</tspan><tspan font-family="DIN OT" font-size="10" font-weight="500" x="10.2315" y="34" textLength="53.259998">cp pool serv</tspan><tspan font-family="DIN OT" font-size="10" font-weight="500" x="63.3915" y="34" textLength="21.969999">er is </tspan><tspan font-family="DIN OT" font-size="10" font-weight="500" x="29.1065" y="46" textLength="4.96">s</tspan><tspan font-family="DIN OT" font-size="10" font-weight="500" x="33.9665" y="46" textLength="3.32">t</tspan><tspan font-family="DIN OT" font-size="10" font-weight="500" x="37.2365" y="46" textLength="12.79">art</tspan><tspan font-family="DIN OT" font-size="10" font-weight="500" x="49.9765" y="46" textLength="10.75">ed</tspan></text><g id="id86_Graphic"><path d="M 163.7 224.1 L 188.9 249.3 L 163.7 274.5 L 138.5 249.3 Z" fill="white"/><path d="M 163.7 224.1 L 188.9 249.3 L 163.7 274.5 L 138.5 249.3 Z" stroke="black" stroke-linecap="round" stroke-linejoin="round" stroke-width="1"/><text transform="translate(150.304 238.796)" fill="black"><tspan font-family="DIN OT" font-size="15" font-weight="500" x="9.1225" y="16" textLength="9.705">C</tspan></text></g><line x1="355.13426" y1="221.31575" x2="201.91357" y2="243.71387" marker-end="url(#FilledArrow_Marker)" stroke="black" stroke-linecap="round" stroke-linejoin="round" stroke-width="3"/><g id="id90_Graphic"><rect x="355.629" y="420.542" width="43.702" height="45.9624" fill="white"/><rect x="355.629" y="420.542" width="43.702" height="45.9624" stroke="black" stroke-linecap="round" stroke-linejoin="round" stroke-width="1"/><text transform="translate(360.629 433.5232)" fill="black"><tspan font-family="DIN OT" font-size="15" font-weight="500" x="12.441" y="16" textLength="8.97">S</tspan></text></g><line x1="377.48" y1="395.3964" x2="377.48" y2="420.042" stroke="black" stroke-linecap="round" stroke-linejoin="round" stroke-width="1" stroke-dasharray="1,4"/><g id="id92_Graphic"><path d="M 163.7 449.5 L 188.9 474.7 L 163.7 499.9 L 138.5 474.7 Z" fill="white"/><path d="M 163.7 449.5 L 188.9 474.7 L 163.7 499.9 L 138.5 474.7 Z" stroke="black" stroke-linecap="round" stroke-linejoin="round" stroke-width="1"/><text transform="translate(150.304 464.196)" fill="black"><tspan font-family="DIN OT" font-size="15" font-weight="500" x="9.1225" y="16" textLength="9.705">C</tspan></text></g><line x1="355.13423" y1="446.78202" x2="195.98382" y2="469.99187" marker-end="url(#FilledArrow_Marker_3)" stroke="black" stroke-linecap="round" stroke-linejoin="round" stroke-width="1"/><text transform="translate(52 427.9)" fill="black"><tspan font-family="DIN OT" font-size="10" font-weight="500" x="17.97" y="10" textLength="5.58">T</tspan><tspan font-family="DIN OT" font-size="10" font-weight="500" x="23.5" y="10" textLength="13.41">he </tspan><tspan font-family="DIN OT" font-size="10" font-weight="500" x="36.96" y="10" textLength="6.4699998">C</tspan><tspan font-family="DIN OT" font-size="10" font-weight="500" x="43.38" y="10" textLength="22.19">lient </tspan><tspan font-family="DIN OT" font-size="10" font-weight="500" x="8.32" y="22" textLength="4.9">c</tspan><tspan font-family="DIN OT" font-size="10" font-weight="500" x="13.07" y="22" textLength="30.06">onnect</tspan><tspan font-family="DIN OT" font-size="10" font-weight="500" x="43.08" y="22" textLength="10.7700005">s t</tspan><tspan font-family="DIN OT" font-size="10" font-weight="500" x="53.8" y="22" textLength="21.42">o all </tspan><tspan font-family="DIN OT" font-size="10" font-weight="500" x="3.255" y="34" textLength="77.03">pools and begins </tspan><tspan font-family="DIN OT" font-size="10" font-weight="500" x="13.99" y="46" textLength="10.42">lis</tspan><tspan font-family="DIN OT" font-size="10" font-weight="500" x="24.31" y="46" textLength="3.32">t</tspan><tspan font-family="DIN OT" font-size="10" font-weight="500" x="27.58" y="46" textLength="30.12">ening f</tspan><tspan font-family="DIN OT" font-size="10" font-weight="500" x="57.55" y="46" textLength="12">or </tspan><tspan font-family="DIN OT" font-size="10" font-weight="500" x="5.245" y="58" textLength="40.779999">things lik</tspan><tspan font-family="DIN OT" font-size="10" font-weight="500" x="45.625" y="58" textLength="32.669998">e a full </tspan><tspan font-family="DIN OT" font-size="10" font-weight="500" x="3.72" y="70" textLength="3.32">t</tspan><tspan font-family="DIN OT" font-size="10" font-weight="500" x="6.99" y="70" textLength="18.99">opol</tspan><tspan font-family="DIN OT" font-size="10" font-weight="500" x="25.88" y="70" textLength="21.9">ogy r</tspan><tspan font-family="DIN OT" font-size="10" font-weight="500" x="47.48" y="70" textLength="26.629999">eques</tspan><tspan font-family="DIN OT" font-size="10" font-weight="500" x="74.01" y="70" textLength="3.32">t</tspan></text><text transform="translate(53 237.3)" fill="black"><tspan font-family="DIN OT" font-size="10" font-weight="500" x="1.095" y="10" textLength="6.4699998">C</tspan><tspan font-family="DIN OT" font-size="10" font-weight="500" x="7.515" y="10" textLength="27.09">lient c</tspan><tspan font-family="DIN OT" font-size="10" font-weight="500" x="34.455" y="10" textLength="43.5">onnection</tspan><tspan font-family="DIN OT" font-size="10" font-weight="500" x=".355" y="22" textLength="11.8999996">att</tspan><tspan font-family="DIN OT" font-size="10" font-weight="500" x="12.205" y="22" textLength="40.830002">empt suc</tspan><tspan font-family="DIN OT" font-size="10" font-weight="500" x="52.885" y="22" textLength="4.9">c</tspan><tspan font-family="DIN OT" font-size="10" font-weight="500" x="57.635" y="22" textLength="21.01">eeds</tspan></text><line x1="163.7" y1="275" x2="163.7" y2="298.5" stroke="black" stroke-linecap="round" stroke-linejoin="round" stroke-width="1" stroke-dasharray="1,4"/><text transform="translate(246.63488 442.7827)" fill="black"><tspan font-family="DIN Offc" font-size="10" font-weight="500" x="0" y="10" textLength="43.04">heartbeat</tspan></text></g></g></svg>
