<?xml version="1.0"?>
<!DOCTYPE svg PUBLIC "-//W3C//DTD SVG 1.1//EN" "http://www.w3.org/Graphics/SVG/1.1/DTD/svg11.dtd">
<svg xmlns="http://www.w3.org/2000/svg" xmlns:xl="http://www.w3.org/1999/xlink" version="1.1" viewBox="314 7 366 170" width="366pt" height="170pt"><metadata xmlns:dc="http://purl.org/dc/elements/1.1/"><dc:date>2012-07-20 22:51Z</dc:date><!-- Produced by OmniGraffle Professional 5.4 --></metadata><defs><filter id="Shadow" filterUnits="userSpaceOnUse"><feGaussianBlur in="SourceAlpha" result="blur" stdDeviation="3.488"/><feOffset in="blur" result="offset" dx="0" dy="4"/><feFlood flood-color="black" flood-opacity=".75" result="flood"/><feComposite in="flood" in2="offset" operator="in"/></filter><font-face font-family="DIN OT" font-size="15" panose-1="2 11 6 4 2 1 1 2 1 2" units-per-em="1000" underline-position="-117.99999" underline-thickness="97" slope="0" x-height="514" cap-height="719" ascent="1041.0021" descent="-237.00047" font-weight="600"><font-face-src><font-face-name name="DINOT-Medium"/></font-face-src></font-face><marker orient="auto" overflow="visible" markerUnits="strokeWidth" id="FilledArrow_Marker" viewBox="-1 -4 10 8" markerWidth="10" markerHeight="8" color="black"><g><path d="M 8 0 L 0 -3 L 0 3 Z" fill="currentColor" stroke="currentColor" stroke-width="1"/></g></marker><font-face font-family="DIN OT" font-size="12" panose-1="2 11 5 4 2 1 1 2 1 2" units-per-em="1000" underline-position="-118" underline-thickness="68" slope="0" x-height="499" cap-height="719" ascent="1041.0022" descent="-237.00049" font-weight="500"><font-face-src><font-face-name name="DINOT"/></font-face-src></font-face><font-face font-family="DIN OT" font-size="12" panose-1="2 11 8 4 2 1 1 2 1 2" units-per-em="1000" underline-position="-118" underline-thickness="124" slope="0" x-height="528" cap-height="719" ascent="1041.0022" descent="-237.00049" font-weight="bold"><font-face-src><font-face-name name="DINOT-Bold"/></font-face-src></font-face></defs><g stroke="none" stroke-opacity="1" stroke-dasharray="none" fill="none" fill-opacity="1"><title>Canvas 8</title><g><title>Layer 1</title><g><use xl:href="#id5_Graphic" filter="url(#Shadow)"/><use xl:href="#id103_Graphic" filter="url(#Shadow)"/></g><g id="id5_Graphic"><ellipse cx="355.851" cy="78.6479" rx="21.851034" ry="22.981237" fill="white"/><ellipse cx="355.851" cy="78.6479" rx="21.851034" ry="22.981237" stroke="black" stroke-linecap="round" stroke-linejoin="round" stroke-width="1"/><text transform="translate(343.3702 68.6479)" fill="black"><tspan font-family="DIN OT" font-size="15" font-weight="600" x="8.8433" y="16" textLength="7.275">c</tspan></text></g><g id="id103_Graphic"><rect x="485.869" y="89.6667" width="43.702" height="45.9624" fill="white"/><rect x="485.869" y="89.6667" width="43.702" height="45.9624" stroke="black" stroke-linecap="round" stroke-linejoin="round" stroke-width="1"/><text transform="translate(490.869 102.6479)" fill="black"><tspan font-family="DIN OT" font-size="15" font-weight="600" x="12.426" y="16" textLength="9">S</tspan></text></g><line x1="377.71362" y1="83.54228" x2="475.7202" y2="105.48301" marker-end="url(#FilledArrow_Marker)" stroke="black" stroke-linecap="round" stroke-linejoin="round" stroke-width="1"/><text transform="translate(387.62921 63.918743)" fill="black"><tspan font-family="DIN OT" font-size="12" font-weight="500" x=".15" y="12" textLength="5.052">r</tspan><tspan font-family="DIN OT" font-size="12" font-weight="500" x="4.842" y="12" textLength="31.956">eques</tspan><tspan font-family="DIN OT" font-size="12" font-weight="500" x="36.678" y="12" textLength="50.172">t set time</tspan></text><text transform="translate(542.481 82.647897)" fill="black"><tspan font-family="DIN OT" font-size="12" font-weight="500" x="2.9555" y="12" textLength="25.128">sluic</tspan><tspan font-family="DIN OT" font-size="12" font-weight="500" x="27.9035" y="12" textLength="25.643999">e set</tspan><tspan font-family="DIN OT" font-size="12" font-weight="500" x="53.4875" y="12" textLength="15.948">s it</tspan><tspan font-family="DIN OT" font-size="12" font-weight="500" x="69.3755" y="12" textLength="22.692">s int</tspan><tspan font-family="DIN OT" font-size="12" font-weight="500" x="92.0075" y="12" textLength="30.984">ernal </tspan><tspan font-family="DIN OT" font-size="12" font-weight="500" x="12.7535" y="27" textLength="31.896">displa</tspan><tspan font-family="DIN OT" font-size="12" font-weight="500" x="44.5895" y="27" textLength="39.240002">y time t</tspan><tspan font-family="DIN OT" font-size="12" font-weight="500" x="83.7695" y="27" textLength="29.424">o the </tspan><tspan font-family="DIN OT" font-size="12" font-weight="500" x="7.3055" y="42" textLength="14.904">giv</tspan><tspan font-family="DIN OT" font-size="12" font-weight="500" x="22.0895" y="42" textLength="93.564003">en time or pause/</tspan><tspan font-family="DIN OT" font-size="12" font-weight="500" x="11.9255" y="57" textLength="16.379999">pla</tspan><tspan font-family="DIN OT" font-size="12" font-weight="500" x="28.2455" y="57" textLength="5.364">y</tspan><tspan font-family="DIN OT" font-size="12" font-weight="500" x="33.4895" y="57" textLength="29.244">s as r</tspan><tspan font-family="DIN OT" font-size="12" font-weight="500" x="62.3735" y="57" textLength="31.956">eques</tspan><tspan font-family="DIN OT" font-size="12" font-weight="500" x="94.2095" y="57" textLength="3.984">t</tspan><tspan font-family="DIN OT" font-size="12" font-weight="500" x="98.1335" y="57" textLength="12.9">ed</tspan></text><line x1="430.545" y1="18.949261" x2="431.545" y2="166" stroke="#6f6f6f" stroke-linecap="round" stroke-linejoin="round" stroke-width="1" stroke-dasharray="8,5"/><text transform="translate(337 24.166599)" fill="black"><tspan font-family="DIN OT" font-size="12" font-weight="bold" x=".342" y="12" textLength="7.56">C</tspan><tspan font-family="DIN OT" font-size="12" font-weight="bold" x="7.842" y="12" textLength="24.876">lient</tspan></text><text transform="translate(490.72 24.166599)" fill="black"><tspan font-family="DIN OT" font-size="12" font-weight="bold" x=".338" y="12" textLength="7.212">S</tspan><tspan font-family="DIN OT" font-size="12" font-weight="bold" x="7.49" y="12" textLength="19.836">luic</tspan><tspan font-family="DIN OT" font-size="12" font-weight="bold" x="27.146" y="12" textLength="6.5760002">e</tspan></text></g></g></svg>
